{
 "_comment":{"source description": "The type of the feature (previously called the \"method\"). This is constrained to be either a term from the Sequence Ontology or an SO accession number. The latter alternative is distinguished using the syntax SO:000000. In either case, it must be sequence_feature (SO:0000110) or an is_a child of it."},
 "five_prime_UTR": {
   "target": "5'UTR"
 },
 "three_prime_UTR": {
   "target": "3'UTR"
 },
 "protein_hmm_match": {
   "target": "standard_name"
 },
 "transcript": {
     "source description": "SO:0000673",
 	"target": "misc_RNA"
 },
 "gene": {
     "remove": "false"
 },
 "pseudogenic_exon": {
     "target": "exon",
     "source description": "SO:0000507"
 },
 "pseudogenic_cds": { "target": "CDS",
                      "source description": "SO:0002087"
 },
 "biological_region": {"target": "misc_feature",
                       "source description": "SO:0001411"
 },
 "sequence_difference": {"target": "misc_difference",
                         "source description": "SO:0000413"
 },
 "binding_site": {"target": "misc_binding",
                  "source description": "SO:0000409"
 },
 "ncRNA_gene": {"target": "gene",
                "source description": "SO:0001263"
 },
 "pseudogene": {"target": "gene",
                "source description": "SO:0000336"
 },
 "pseudogenic_transcript": {"target": "misc_RNA",
                            "source description": "SO:0000516"
 },
 "protein_binding_site": {"target": "misc_binding",
                          "source description": "SO:0000410"
 },
 "pseudogenic_CDS": {"target": "CDS",
                     "source description": "SO:0002087"
 },
 "pseudogenic CDS": {"target": "CDS",
                     "source description": "SO:0002087"
 },
 "regulatory_region": {"target": "regulatory",
                       "source description": "SO:0005836"
 },
 "signal_peptide": {"target": "misc_feature",
                 "source description": "SO:0000418"
}
}
