set terminal x11 font "Courier,8"
set size 1,1
set grid
unset key
set border 15
set tics scale 0
set xlabel "Chromosome"
set ylabel "gnl|MPB|PFLU_1"
set format "%.0f"
set mouse format "%.0f"
set mouse mouseformat "[%.0f, %.0f]"
set xrange [1:6722539]
set yrange [1:6722400]
set style line 1  lt 1 lw 2 pt 6 ps 1
set style line 2  lt 3 lw 2 pt 6 ps 1
set style line 3  lt 2 lw 2 pt 6 ps 1
plot \
 "out.fplot" title "FWD" w lp ls 1, \
 "out.rplot" title "REV" w lp ls 2

print "-- INTERACTIVE MODE --"
print "consult gnuplot docs for command list"
print "mouse 1: coords to clipboard"
print "mouse 2: mark on plot"
print "mouse 3: zoom box"
print "'h' for help in plot window"
print "enter to exit"
pause -1
