Gene names,Transcript ID,query status,query mnemonic ,Ref. annotation,salltitles,protein length,slen,qlen
PFLU_0090,CAY46375,sp,Y090_PSEFS,conserved hypothetical membrane protein,sp|Q4KKI8|Y093_PSEF5 UPF0391 membrane protein PFL_0093 OS=Pseudomonas fluorescens (strain ATCC BAA-477 / NRRL B-23932 / Pf-5) OX=220664 GN=PFL_0093 PE=3 SV=1,54,54,54
PFLU_0322,CAY46600,sp,FETP_PSEFS,conserved hypothetical protein,sp|C3K6U5|FETP_PSEFS Probable Fe(2+)-trafficking protein OS=Pseudomonas fluorescens (strain SBW25) OX=216595 GN=PFLU_0322 PE=3 SV=1,90,90,90
PFLU_0667,CAY46935,sp,ADE_PSEFS,putative adenosine deaminase,sp|C3K8W2|ADE_PSEFS Adenine deaminase OS=Pseudomonas fluorescens (strain SBW25) OX=216595 GN=PFLU_0667 PE=3 SV=1,317,317,317
PFLU_0879,CAY47146,sp,Y879_PSEFS,conserved hypothetical protein,sp|C3K839|Y879_PSEFS Nucleotide-binding protein PFLU_0879 OS=Pseudomonas fluorescens (strain SBW25) OX=216595 GN=PFLU_0879 PE=3 SV=1,285,285,285
PFLU_0992,CAY47256,sp,Y992_PSEFS,conserved hypothetical protein,sp|C3KE01|Y992_PSEFS UPF0246 protein PFLU_0992 OS=Pseudomonas fluorescens (strain SBW25) OX=216595 GN=PFLU_0992 PE=3 SV=1,259,259,259
PFLU_1319,CAY47574,sp,Y1319_PSEFS,conserved hypothetical protein,sp|C3K7J3|Y1319_PSEFS UPF0225 protein PFLU_1319 OS=Pseudomonas fluorescens (strain SBW25) OX=216595 GN=PFLU_1319 PE=3 SV=1,156,156,156
PFLU_1517,CAY47766,sp,Y1517_PSEFS,conserved hypothetical protein,sp|C3K5F2|Y1517_PSEFS YcgL domain-containing protein PFLU_1517 OS=Pseudomonas fluorescens (strain SBW25) OX=216595 GN=PFLU_1517 PE=3 SV=1,97,97,97
PFLU_1520,CAY47769,sp,Y1520_PSEFS,conserved hypothetical protein,sp|C3K5F5|Y1520_PSEFS UPF0260 protein PFLU_1520 OS=Pseudomonas fluorescens (strain SBW25) OX=216595 GN=PFLU_1520 PE=3 SV=1,149,149,149
PFLU_1908,CAY48153,tr,C3K515_PSEFS,putative chloride transport-related membrane protein,sp|Q87WD2|ERIC_PSESM Chloride/fluoride channel protein OS=Pseudomonas syringae pv. tomato (strain ATCC BAA-871 / DC3000) OX=223283 GN=eriC PE=1 SV=1,448,452,448
PFLU_2135,CAY48374,sp,Y2135_PSEFS,conserved hypothetical protein,sp|C3K6R3|Y2135_PSEFS UPF0502 protein PFLU_2135 OS=Pseudomonas fluorescens (strain SBW25) OX=216595 GN=PFLU_2135 PE=3 SV=1,217,217,217
PFLU_2427,CAY48657,tr,C3K8K1_PSEFS,putative alkaline phosphatase,sp|P86348|ALPH_DEIAC Alkaline phosphatase (Fragment) OS=Deinagkistrodon acutus OX=36307 PE=1 SV=1,394,20,394
PFLU_3105,CAY49334,sp,OADC_PSEFS,putative carboxyvinyl-carboxyphosphonate phosphorylmutase,sp|C3KBB4|OADC_PSEFS Oxaloacetate decarboxylase OS=Pseudomonas fluorescens (strain SBW25) OX=216595 GN=PFLU_3105 PE=3 SV=1,289,289,289
PFLU_3771,CAY50057,sp,Y3771_PSEFS,conserved hypothetical protein,sp|C3JY28|Y3771_PSEFS UPF0434 protein PFLU_3771 OS=Pseudomonas fluorescens (strain SBW25) OX=216595 GN=PFLU_3771 PE=3 SV=1,61,61,61
PFLU_4161,CAY50667,tr,C3JZQ0_PSEFS,putative L-asparaginase II precursor,sp|O68897|ASPQ_PSEFA Glutaminase-asparaginase OS=Pseudomonas fluorescens biotype A OX=32035 GN=ansB PE=1 SV=1,362,362,362
PFLU_4323,CAY50921,sp,Y4323_PSEFS,conserved hypothetical protein,sp|C3K071|Y4323_PSEFS UPF0270 protein PFLU_4323 OS=Pseudomonas fluorescens (strain SBW25) OX=216595 GN=PFLU_4323 PE=3 SV=1,75,75,75
PFLU_4459,CAY51144,sp,PHS_PSEFS,putative pterin biosynthesis-related protein,sp|C3K0W5|PHS_PSEFS Putative pterin-4-alpha-carbinolamine dehydratase OS=Pseudomonas fluorescens (strain SBW25) OX=216595 GN=PFLU_4459 PE=3 SV=1,118,118,118
PFLU_4577,CAY51307,sp,Y4577_PSEFS,conserved hypothetical protein,sp|C3K0S7|Y4577_PSEFS Nucleoid-associated protein PFLU_4577 OS=Pseudomonas fluorescens (strain SBW25) OX=216595 GN=PFLU_4577 PE=3 SV=1,112,112,112
PFLU_4621,CAY51378,sp,PSRP_PSEFS,conserved hypothetical protein,sp|C3K116|PSRP_PSEFS Putative phosphoenolpyruvate synthase regulatory protein OS=Pseudomonas fluorescens (strain SBW25) OX=216595 GN=PFLU_4621 PE=3 SV=1,272,272,272
PFLU_4927,CAY51844,sp,Y4927_PSEFS,conserved hypothetical protein,sp|C3JYU1|Y4927_PSEFS UPF0234 protein PFLU_4927 OS=Pseudomonas fluorescens (strain SBW25) OX=216595 GN=PFLU_4927 PE=3 SV=1,161,161,161
PFLU_5318,CAY52445,sp,Y5318_PSEFS,putative membrane protein,sp|C3K2C1|Y5318_PSEFS UPF0114 protein PFLU_5318 OS=Pseudomonas fluorescens (strain SBW25) OX=216595 GN=PFLU_5318 PE=3 SV=1,162,162,162
PFLU_5418,CAY52592,sp,Y5418_PSEFS,conserved hypothetical protein,sp|C3K2M0|Y5418_PSEFS UPF0250 protein PFLU_5418 OS=Pseudomonas fluorescens (strain SBW25) OX=216595 GN=PFLU_5418 PE=3 SV=1,91,91,91
PFLU_5583,CAY52857,sp,Y5583_PSEFS,conserved hypothetical protein,sp|C3K332|Y5583_PSEFS UPF0229 protein PFLU_5583 OS=Pseudomonas fluorescens (strain SBW25) OX=216595 GN=PFLU_5583 PE=3 SV=1,423,423,423
PFLU_5725,CAY53084,sp,Y5725_PSEFS,putative exported protein,sp|C3K3H1|Y5725_PSEFS UPF0312 protein PFLU_5725 OS=Pseudomonas fluorescens (strain SBW25) OX=216595 GN=PFLU_5725 PE=3 SV=1,192,192,192
PFLU_5755,CAY53128,sp,Y5755_PSEFS,conserved hypothetical protein,sp|C3K3J9|Y5755_PSEFS UPF0301 protein PFLU_5755 OS=Pseudomonas fluorescens (strain SBW25) OX=216595 GN=PFLU_5755 PE=3 SV=1,189,189,189
PFLU_5756,CAY53130,sp,YQGF_PSEFS,putative holliday junction resolvase,sp|C3K3K0|YQGF_PSEFS Putative pre-16S rRNA nuclease OS=Pseudomonas fluorescens (strain SBW25) OX=216595 GN=PFLU_5756 PE=3 SV=1,145,145,145
PFLU_5917,CAY53397,sp,Y5917_PSEFS,conserved hypothetical protein,sp|C3K407|Y5917_PSEFS UPF0178 protein PFLU_5917 OS=Pseudomonas fluorescens (strain SBW25) OX=216595 GN=PFLU_5917 PE=3 SV=1,151,151,151
aguA PFLU_0293,CAY46571,sp,AGUA_PSEFS,conserved hypothetical protein,sp|C3K5U8|AGUA_PSEFS Agmatine deiminase OS=Pseudomonas fluorescens (strain SBW25) OX=216595 GN=aguA PE=3 SV=1,368,368,368
alc PFLU_4361,CAY50984,sp,ALLC_PSEFS,putative allantoicase,sp|C3K0A7|ALLC_PSEFS Probable allantoicase OS=Pseudomonas fluorescens (strain SBW25) OX=216595 GN=alc PE=3 SV=1,331,331,331
amiE PFLU_2536,CAY48772,sp,AMIE_PSEFS,putative carbon-nitrogen hydrolase,sp|C3K9E6|AMIE_PSEFS Aliphatic amidase OS=Pseudomonas fluorescens (strain SBW25) OX=216595 GN=amiE PE=3 SV=1,347,347,347
apaG PFLU_5579,CAY52850,sp,APAG_PSEFS,conserved hypothetical protein,sp|C3K328|APAG_PSEFS Protein ApaG OS=Pseudomonas fluorescens (strain SBW25) OX=216595 GN=apaG PE=3 SV=1,126,126,126
apeB PFLU_4373,CAY51001,sp,APEB_PSEFS,putative aspartyl aminopeptidase,sp|C3K0D7|APEB_PSEFS Probable M18 family aminopeptidase 2 OS=Pseudomonas fluorescens (strain SBW25) OX=216595 GN=apeB PE=3 SV=1,429,429,429
arnA PFLU_3041,CAY49270,sp,ARNA_PSEFS,putative formyl transferase,sp|C3KAD2|ARNA_PSEFS Bifunctional polymyxin resistance protein ArnA OS=Pseudomonas fluorescens (strain SBW25) OX=216595 GN=arnA PE=3 SV=1,663,663,663
arnC PFLU_3042,CAY49271,sp,ARNC_PSEFS,putative glycosyl transferase,sp|C3KAD3|ARNC_PSEFS Undecaprenyl-phosphate 4-deoxy-4-formamido-L-arabinose transferase OS=Pseudomonas fluorescens (strain SBW25) OX=216595 GN=arnC PE=3 SV=1,341,341,341
arnE PFLU_3038,CAY49267,sp,ARNE_PSEFS,putative membrane protein,sp|C3KAC9|ARNE_PSEFS Probable 4-amino-4-deoxy-L-arabinose-phosphoundecaprenol flippase subunit ArnE OS=Pseudomonas fluorescens (strain SBW25) OX=216595 GN=arnE PE=3 SV=1,115,115,115
astE PFLU_4751,CAY51574,sp,ASTE_PSEFS,putative succinylglutamate desuccinylase,sp|C3JXY4|ASTE_PSEFS Succinylglutamate desuccinylase OS=Pseudomonas fluorescens (strain SBW25) OX=216595 GN=astE PE=3 SV=1,334,334,334
bpt PFLU_3803,CAY50110,sp,BPT_PSEFS,putative arginyl-tRNA--protein transferase,sp|C3JY60|BPT_PSEFS Aspartate/glutamate leucyltransferase OS=Pseudomonas fluorescens (strain SBW25) OX=216595 GN=bpt PE=3 SV=1,235,235,235
cheD PFLU_5089,CAY52100,sp,CHED_PSEFS,putative chemotaxis protein CheD,sp|C3K1P8|CHED_PSEFS Probable chemoreceptor glutamine deamidase CheD OS=Pseudomonas fluorescens (strain SBW25) OX=216595 GN=cheD PE=3 SV=1,177,177,177
clsA cls PFLU_6096,CAY53688,sp,CLSA_PSEFS,putative cardiolipin synthase family protein,sp|C3K1C4|CLSA_PSEFS Cardiolipin synthase A OS=Pseudomonas fluorescens (strain SBW25) OX=216595 GN=clsA PE=3 SV=1,479,479,479
cmoA PFLU_1067,CAY47331,sp,CMOA_PSEFS,conserved hypothetical protein,sp|C3K6Z4|CMOA_PSEFS Carboxy-S-adenosyl-L-methionine synthase OS=Pseudomonas fluorescens (strain SBW25) OX=216595 GN=cmoA PE=3 SV=1,247,247,247
cmoB PFLU_1066,CAY47330,sp,CMOB_PSEFS,conserved hypothetical protein,sp|C3K6Z3|CMOB_PSEFS tRNA U34 carboxymethyltransferase OS=Pseudomonas fluorescens (strain SBW25) OX=216595 GN=cmoB PE=3 SV=1,318,318,318
coaX PFLU_5542,CAY52791,sp,COAX_PSEFS,putative regulatory protein,sp|C3K2Z1|COAX_PSEFS Type III pantothenate kinase OS=Pseudomonas fluorescens (strain SBW25) OX=216595 GN=coaX PE=3 SV=1,249,249,249
cobQ PFLU_4486,CAY51181,sp,COBQ_PSEFS,putative cobyric acid synthase protein,sp|C3K0Z0|COBQ_PSEFS Cobyric acid synthase OS=Pseudomonas fluorescens (strain SBW25) OX=216595 GN=cobQ PE=3 SV=1,483,483,483
cobT PFLU_4483,CAY51179,sp,COBT_PSEFS,putative nicotinate-nucleotide--dimethylbenzimidazole phosphoribosyltransferase,sp|C3K0Y8|COBT_PSEFS Nicotinate-nucleotide--dimethylbenzimidazole phosphoribosyltransferase OS=Pseudomonas fluorescens (strain SBW25) OX=216595 GN=cobT PE=3 SV=1,351,351,351
coq7 PFLU_5554,CAY52809,sp,COQ7_PSEFS,conserved hypothetical protein,sp|C3K303|COQ7_PSEFS 3-demethoxyubiquinol 3-hydroxylase OS=Pseudomonas fluorescens (strain SBW25) OX=216595 GN=coq7 PE=3 SV=1,215,215,215
crcB PFLU_3798,CAY50101,sp,CRCB_PSEFS,putative transmembrane CrcB family homolog,sp|C3JY55|CRCB_PSEFS Putative fluoride ion transporter CrcB OS=Pseudomonas fluorescens (strain SBW25) OX=216595 GN=crcB PE=3 SV=1,124,124,124
cyaY PFLU_5943,CAY53440,sp,CYAY_PSEFS,conserved hypothetical protein,sp|C3K433|CYAY_PSEFS Iron-sulfur cluster assembly protein CyaY OS=Pseudomonas fluorescens (strain SBW25) OX=216595 GN=cyaY PE=3 SV=1,110,110,110
cysZ PFLU_5163,CAY52209,sp,CYSZ_PSEFS,putative membrane protein,sp|C3K1X0|CYSZ_PSEFS Sulfate transporter CysZ OS=Pseudomonas fluorescens (strain SBW25) OX=216595 GN=cysZ PE=3 SV=1,255,255,255
dcd PFLU_1304,CAY47560,sp,DCD_PSEFS,putative deoxycytidine triphosphate deaminase,sp|C3K710|DCD_PSEFS dCTP deaminase OS=Pseudomonas fluorescens (strain SBW25) OX=216595 GN=dcd PE=3 SV=1,188,188,188
efp PFLU_1714,CAY47962,sp,EFP_PSEFS,putative elongation factor,sp|C3K6L0|EFP_PSEFS Elongation factor P OS=Pseudomonas fluorescens (strain SBW25) OX=216595 GN=efp PE=3 SV=1,190,190,190
erpA PFLU_5547,CAY52799,sp,ERPA_PSEFS,conserved hypothetical protein,sp|C3K2Z6|ERPA_PSEFS Iron-sulfur cluster insertion protein ErpA OS=Pseudomonas fluorescens (strain SBW25) OX=216595 GN=erpA PE=3 SV=1,116,116,116
eutC PFLU_5444,CAY52636,sp,EUTC_PSEFS,putative amine degradation-related protein,sp|C3K2P6|EUTC_PSEFS Ethanolamine ammonia-lyase light chain OS=Pseudomonas fluorescens (strain SBW25) OX=216595 GN=eutC PE=3 SV=1,277,277,277
fabV PFLU_1621,CAY47871,sp,FABV_PSEFS,putative reductase,sp|C3K5J5|FABV_PSEFS Enoyl-[acyl-carrier-protein] reductase [NADH] OS=Pseudomonas fluorescens (strain SBW25) OX=216595 GN=fabV PE=3 SV=1,397,397,397
folE2 PFLU_6088,CAY53675,sp,GCH4_PSEFS,conserved hypothetical protein,sp|C3K4H5|GCH4_PSEFS GTP cyclohydrolase FolE2 OS=Pseudomonas fluorescens (strain SBW25) OX=216595 GN=folE2 PE=3 SV=1,298,298,298
gloB PFLU_2643,CAY48876,sp,GLO2_PSEFS,putative hydroxyacylglutathione hydrolase,sp|C3K9Q0|GLO2_PSEFS Hydroxyacylglutathione hydrolase OS=Pseudomonas fluorescens (strain SBW25) OX=216595 GN=gloB PE=3 SV=1,255,255,255
glsA PFLU_3587,CAY49806,sp,GLSA_PSEFS,putative glutaminase,sp|C3JXF9|GLSA_PSEFS Glutaminase OS=Pseudomonas fluorescens (strain SBW25) OX=216595 GN=glsA PE=3 SV=1,302,302,302
gpsA PFLU_1840,CAY48087,sp,GPDA_PSEFS,putative glycerol-3-phosphate dehydrogenase [NAD(P) ],sp|C3K747|GPDA_PSEFS Glycerol-3-phosphate dehydrogenase [NAD(P)+] OS=Pseudomonas fluorescens (strain SBW25) OX=216595 GN=gpsA PE=3 SV=1,341,341,341
hflD PFLU_3812,CAY50125,sp,HFLD_PSEFS,conserved hypothetical protein,sp|C3JY69|HFLD_PSEFS High frequency lysogenization protein HflD homolog OS=Pseudomonas fluorescens (strain SBW25) OX=216595 GN=hflD PE=3 SV=1,207,207,207
hisE PFLU_0385,CAY46662,sp,HIS2_PSEFS,putative phosphoribosyl-ATP pyrophosphatase,sp|C3K8U0|HIS2_PSEFS Phosphoribosyl-ATP pyrophosphatase OS=Pseudomonas fluorescens (strain SBW25) OX=216595 GN=hisE PE=3 SV=1,110,110,110
hisZ PFLU_0524,CAY46799,sp,HISZ_PSEFS,putative ATP phosphoribosyltransferase regulatory subunit,sp|C3KDW7|HISZ_PSEFS ATP phosphoribosyltransferase regulatory subunit OS=Pseudomonas fluorescens (strain SBW25) OX=216595 GN=hisZ PE=3 SV=1,395,395,395
infA PFLU_3804,CAY50111,tr,C3JY61_PSEFS,putative translation initiation factor IF-1,sp|A4VLV5|IF1_PSEU5 Translation initiation factor IF-1 OS=Pseudomonas stutzeri (strain A1501) OX=379731 GN=infA PE=3 SV=1,72,72,72
laaA PFLU_1629,CAY47879,sp,LAAA_PSEFS,putative peptidase,sp|C3K630|LAAA_PSEFS L-amino acid amidase OS=Pseudomonas fluorescens (strain SBW25) OX=216595 GN=laaA PE=3 SV=1,310,310,310
ligB PFLU_5711,CAY53062,sp,LIGB_PSEFS,putative exported DNA-ligase protein,sp|C3K3F7|LIGB_PSEFS DNA ligase B OS=Pseudomonas fluorescens (strain SBW25) OX=216595 GN=ligB PE=3 SV=1,554,554,554
lolB PFLU_0734,CAY47003,sp,LOLB_PSEFS,putative outer-membrane lipoprotein,sp|C3KDC3|LOLB_PSEFS Outer-membrane lipoprotein LolB OS=Pseudomonas fluorescens (strain SBW25) OX=216595 GN=lolB PE=3 SV=1,205,205,205
lpxH PFLU_3874,CAY50220,sp,LPXH_PSEFS,conserved hypothetical protein,"sp|C3JYD6|LPXH_PSEFS UDP-2,3-diacylglucosamine hydrolase OS=Pseudomonas fluorescens (strain SBW25) OX=216595 GN=lpxH PE=3 SV=1",249,249,249
mdcC PFLU_5741,CAY53110,sp,MDCC_PSEFS,putative malonate decarboxylase acyl carrier protein,sp|C3K3I7|MDCC_PSEFS Malonate decarboxylase acyl carrier protein OS=Pseudomonas fluorescens (strain SBW25) OX=216595 GN=mdcC PE=3 SV=1,99,99,99
metXS PFLU_5766,CAY53148,sp,METXS_PSEFS,putative homoserine O-acetyltransferase,sp|C3K3L0|METXS_PSEFS Homoserine O-succinyltransferase OS=Pseudomonas fluorescens (strain SBW25) OX=216595 GN=metXS PE=3 SV=1,379,379,379
miaB PFLU_5404,CAY52570,tr,C3K2K6_PSEFS,conserved hypothetical protein,sp|Q4K5I3|MIAB_PSEF5 tRNA-2-methylthio-N(6)-dimethylallyladenosine synthase OS=Pseudomonas fluorescens (strain ATCC BAA-477 / NRRL B-23932 / Pf-5) OX=220664 GN=miaB PE=3 SV=1,442,442,442
minE PFLU_4371,CAY50997,sp,MINE_PSEFS,putative cell division topological specificity factor,sp|C3K0D5|MINE_PSEFS Cell division topological specificity factor OS=Pseudomonas fluorescens (strain SBW25) OX=216595 GN=minE PE=3 SV=1,84,84,84
mobA PFLU_1753,CAY48000,sp,MOBA_PSEFS,putative molybdopterin-guanine dinucleotide biosynthesis protein A,sp|C3K7L4|MOBA_PSEFS Molybdenum cofactor guanylyltransferase OS=Pseudomonas fluorescens (strain SBW25) OX=216595 GN=mobA PE=3 SV=1,200,200,200
mraZ PFLU_0938,CAY47204,sp,MRAZ_PSEFS,conserved hypothetical protein,sp|C3KBY5|MRAZ_PSEFS Transcriptional regulator MraZ OS=Pseudomonas fluorescens (strain SBW25) OX=216595 GN=mraZ PE=3 SV=1,151,151,151
msrQ PFLU_5215,CAY52292,sp,MSRQ_PSEFS,putative putative membrane protein,sp|C3K222|MSRQ_PSEFS Protein-methionine-sulfoxide reductase heme-binding subunit MsrQ OS=Pseudomonas fluorescens (strain SBW25) OX=216595 GN=msrQ PE=3 SV=1,206,206,206
nfuA PFLU_2664,CAY48896,sp,NFUA_PSEFS,conserved hypothetical protein,sp|C3K9S0|NFUA_PSEFS Fe/S biogenesis protein NfuA OS=Pseudomonas fluorescens (strain SBW25) OX=216595 GN=nfuA PE=3 SV=1,194,194,194
nusB PFLU_5469,CAY52674,sp,NUSB_PSEFS,putative N utilisation-related protein,sp|C3K2R8|NUSB_PSEFS Transcription antitermination protein NusB OS=Pseudomonas fluorescens (strain SBW25) OX=216595 GN=nusB PE=3 SV=1,166,166,166
pcp PFLU_4174,CAY50685,sp,PCP_PSEFS,putative pyrrolidone-carboxylate peptidase,sp|C3JZR3|PCP_PSEFS Pyrrolidone-carboxylate peptidase OS=Pseudomonas fluorescens (strain SBW25) OX=216595 GN=pcp PE=3 SV=1,213,213,213
phnX PFLU_3912,CAY50286,sp,PHNX_PSEFS,putative hydrolase,sp|C3JYI3|PHNX_PSEFS Phosphonoacetaldehyde hydrolase OS=Pseudomonas fluorescens (strain SBW25) OX=216595 GN=phnX PE=3 SV=1,275,275,275
plsB PFLU_1255,CAY47512,sp,PLSB_PSEFS,putative glycerol-3-phosphate acyltransferase,sp|C3K4R1|PLSB_PSEFS Glycerol-3-phosphate acyltransferase OS=Pseudomonas fluorescens (strain SBW25) OX=216595 GN=plsB PE=3 SV=1,839,839,839
plsX PFLU_4707,CAY51512,sp,PLSX_PSEFS,putative fatty acid/phospholipid synthesis protein,sp|C3K0N6|PLSX_PSEFS Phosphate acyltransferase OS=Pseudomonas fluorescens (strain SBW25) OX=216595 GN=plsX PE=3 SV=1,336,336,336
plsY PFLU_5588,CAY52866,sp,PLSY_PSEFS,conserved hypothetical membrane protein,sp|C3K337|PLSY_PSEFS Glycerol-3-phosphate acyltransferase OS=Pseudomonas fluorescens (strain SBW25) OX=216595 GN=plsY PE=3 SV=1,189,189,189
ppnP PFLU_4399,CAY51045,sp,PPNP_PSEFS,conserved hypothetical protein,sp|C3K0G3|PPNP_PSEFS Pyrimidine/purine nucleoside phosphorylase OS=Pseudomonas fluorescens (strain SBW25) OX=216595 GN=ppnP PE=3 SV=1,94,94,94
purM PFLU_4499,CAY51197,sp,PUR5_PSEFS,putative phosphoribosylaminoimidazole synthetase,sp|C3K102|PUR5_PSEFS Phosphoribosylformylglycinamidine cyclo-ligase OS=Pseudomonas fluorescens (strain SBW25) OX=216595 GN=purM PE=3 SV=1,352,352,352
queC PFLU_4904,CAY51802,sp,QUEC_PSEFS,putative transcriptional regulatory protein,sp|C3JYR8|QUEC_PSEFS 7-cyano-7-deazaguanine synthase OS=Pseudomonas fluorescens (strain SBW25) OX=216595 GN=queC PE=3 SV=1,224,224,224
queF PFLU_1578,CAY47826,sp,QUEF_PSEFS,putative GTP cyclohydrolase I,sp|C3K5H2|QUEF_PSEFS NADPH-dependent 7-cyano-7-deazaguanine reductase OS=Pseudomonas fluorescens (strain SBW25) OX=216595 GN=queF PE=3 SV=1,276,276,276
rimP PFLU_5255,CAY52354,sp,RIMP_PSEFS,conserved hypothetical protein,sp|C3K261|RIMP_PSEFS Ribosome maturation factor RimP OS=Pseudomonas fluorescens (strain SBW25) OX=216595 GN=rimP PE=3 SV=2,158,158,158
rlmF PFLU_1051,CAY47315,sp,RLMF_PSEFS,conserved hypothetical protein,sp|C3K6G1|RLMF_PSEFS Ribosomal RNA large subunit methyltransferase F OS=Pseudomonas fluorescens (strain SBW25) OX=216595 GN=rlmF PE=3 SV=1,339,339,339
rlmH PFLU_5424,CAY52602,sp,RLMH_PSEFS,conserved hypothetical protein,sp|C3K2M6|RLMH_PSEFS Ribosomal RNA large subunit methyltransferase H OS=Pseudomonas fluorescens (strain SBW25) OX=216595 GN=rlmH PE=3 SV=1,155,155,155
rlmM PFLU_1543,CAY47792,sp,RLMM_PSEFS,conserved hypothetical protein,sp|C3K5G4|RLMM_PSEFS Ribosomal RNA large subunit methyltransferase M OS=Pseudomonas fluorescens (strain SBW25) OX=216595 GN=rlmM PE=3 SV=1,358,358,358
rlmN PFLU_5060,CAY52051,sp,RLMN_PSEFS,conserved hypothetical protein,sp|C3K1L7|RLMN_PSEFS Dual-specificity RNA methyltransferase RlmN OS=Pseudomonas fluorescens (strain SBW25) OX=216595 GN=rlmN PE=3 SV=1,382,382,382
rplU PFLU_5171,CAY52223,tr,C3K1X8_PSEFS,putative 50S ribosomal protein L21,sp|Q889F3|RL21_PSESM 50S ribosomal protein L21 OS=Pseudomonas syringae pv. tomato (strain ATCC BAA-871 / DC3000) OX=223283 GN=rplU PE=3 SV=1,104,103,104
rplY ctc PFLU_0731,CAY47000,sp,RL25_PSEFS,putative ribosomal protein L25p family,sp|C3KCS0|RL25_PSEFS 50S ribosomal protein L25 OS=Pseudomonas fluorescens (strain SBW25) OX=216595 GN=rplY PE=3 SV=1,200,200,200
rpmF PFLU_4708,CAY51514,sp,RL32_PSEFS,putative 50S ribosomal protein L32,sp|Q3K8K7|RL32_PSEPF 50S ribosomal protein L32 OS=Pseudomonas fluorescens (strain Pf0-1) OX=205922 GN=rpmF PE=3 SV=1,60,60,60
rpmI PFLU_4146,CAY50641,sp,RL35_PSEFS,putative 50S ribosomal protein L35,sp|Q4ZUG5|RL35_PSEU2 50S ribosomal protein L35 OS=Pseudomonas syringae pv. syringae (strain B728a) OX=205918 GN=rpmI PE=3 SV=1,64,64,64
rsgA PFLU_0511,CAY46786,sp,RSGA_PSEFS,putative GTP-ase,sp|C3KDV4|RSGA_PSEFS Small ribosomal subunit biogenesis GTPase RsgA OS=Pseudomonas fluorescens (strain SBW25) OX=216595 GN=rsgA PE=3 SV=1,343,343,343
rsmJ PFLU_1248,CAY47505,sp,RSMJ_PSEFS,conserved hypothetical protein,sp|C3K4Q4|RSMJ_PSEFS Ribosomal RNA small subunit methyltransferase J OS=Pseudomonas fluorescens (strain SBW25) OX=216595 GN=rsmJ PE=3 SV=1,260,260,260
selO PFLU_0444,CAY46720,sp,SELO_PSEFS,conserved hypothetical protein,sp|C3KBV5|SELO_PSEFS Protein adenylyltransferase SelO OS=Pseudomonas fluorescens (strain SBW25) OX=216595 GN=selO PE=3 SV=1,487,487,487
slyX PFLU_4923,CAY51837,sp,SLYX_PSEFS,conserved hypothetical protein,sp|C3JYT7|SLYX_PSEFS Protein SlyX homolog OS=Pseudomonas fluorescens (strain SBW25) OX=216595 GN=slyX PE=3 SV=1,68,68,68
sprT PFLU_3788,CAY50085,sp,SPRT_PSEFS,conserved hypothetical protein,sp|C3JY45|SPRT_PSEFS Protein SprT OS=Pseudomonas fluorescens (strain SBW25) OX=216595 GN=sprT PE=3 SV=1,164,164,164
tatA PFLU_0384,CAY46661,sp,TATA_PSEFS,putative Sec-independent protein translocase protein,sp|C3K8T9|TATA_PSEFS Sec-independent protein translocase protein TatA OS=Pseudomonas fluorescens (strain SBW25) OX=216595 GN=tatA PE=3 SV=1,92,92,92
thiE PFLU_5400,CAY52565,sp,THIE_PSEFS,putative thiamine biosynthesis-related protein,sp|C3K2K2|THIE_PSEFS Thiamine-phosphate synthase OS=Pseudomonas fluorescens (strain SBW25) OX=216595 GN=thiE PE=3 SV=1,209,209,209
thrS PFLU_4148,CAY50645,sp,SYT_PSEFS,putative threonyl-tRNA synthetase,sp|C3JZN7|SYT_PSEFS Threonine--tRNA ligase OS=Pseudomonas fluorescens (strain SBW25) OX=216595 GN=thrS PE=3 SV=1,640,640,640
trhO PFLU_4311,CAY50902,sp,TRHO_PSEFS,conserved hypothetical protein,sp|C3K059|TRHO_PSEFS tRNA uridine(34) hydroxylase OS=Pseudomonas fluorescens (strain SBW25) OX=216595 GN=trhO PE=3 SV=1,313,313,313
trpF PFLU_4188,CAY50704,sp,TRPF_PSEFS,putative N-(5'-phosphoribosyl)anthranilate isomerase,sp|C3JZS5|TRPF_PSEFS N-(5'-phosphoribosyl)anthranilate isomerase OS=Pseudomonas fluorescens (strain SBW25) OX=216595 GN=trpF PE=3 SV=1,210,210,210
truD PFLU_1298,CAY47554,sp,TRUD_PSEFS,putative tRNA pseudouridine synthase D,sp|C3K704|TRUD_PSEFS tRNA pseudouridine synthase D OS=Pseudomonas fluorescens (strain SBW25) OX=216595 GN=truD PE=3 SV=1,352,352,352
tsaD gcp PFLU_5589,CAY52868,sp,TSAD_PSEFS,putative O-sialoglycoprotein endopeptidase,sp|C3K338|TSAD_PSEFS tRNA N6-adenosine threonylcarbamoyltransferase OS=Pseudomonas fluorescens (strain SBW25) OX=216595 GN=tsaD PE=3 SV=1,341,341,341
ttcA PFLU_3786,CAY50081,sp,TTCA_PSEFS,conserved hypothetical protein,sp|C3JY43|TTCA_PSEFS tRNA-cytidine(32) 2-sulfurtransferase OS=Pseudomonas fluorescens (strain SBW25) OX=216595 GN=ttcA PE=3 SV=1,274,274,274
tusA PFLU_1544,CAY47793,sp,TUSA_PSEFS,putative SirA-like protein,sp|C3K5G5|TUSA_PSEFS Sulfur carrier protein TusA OS=Pseudomonas fluorescens (strain SBW25) OX=216595 GN=tusA PE=3 SV=1,83,83,83
ubiB PFLU_0387,CAY46664,sp,UBIB_PSEFS,putative ubiquinone biosynthesis-related protein,sp|C3K8U2|UBIB_PSEFS Probable protein kinase UbiB OS=Pseudomonas fluorescens (strain SBW25) OX=216595 GN=ubiB PE=3 SV=1,534,534,534
ureF PFLU_0562,CAY46833,sp,UREF_PSEFS,putative urease accessory protein,sp|C3K4L4|UREF_PSEFS Urease accessory protein UreF OS=Pseudomonas fluorescens (strain SBW25) OX=216595 GN=ureF PE=3 SV=1,224,224,224
xseA PFLU_5048,CAY52033,sp,EX7L_PSEFS,putative exodeoxyribonuclease VII large subunit,sp|C3K1K5|EX7L_PSEFS Exodeoxyribonuclease 7 large subunit OS=Pseudomonas fluorescens (strain SBW25) OX=216595 GN=xseA PE=3 SV=1,459,459,459
yacG PFLU_0788,CAY47057,sp,YACG_PSEFS,conserved hypothetical protein,sp|C3KE92|YACG_PSEFS DNA gyrase inhibitor YacG OS=Pseudomonas fluorescens (strain SBW25) OX=216595 GN=yacG PE=3 SV=1,66,66,66
ybeY PFLU_5406,CAY52573,sp,YBEY_PSEFS,conserved hypothetical protein,sp|C3K2K8|YBEY_PSEFS Endoribonuclease YbeY OS=Pseudomonas fluorescens (strain SBW25) OX=216595 GN=ybeY PE=3 SV=1,164,164,164
yidC PFLU_6134,CAY53750,sp,YIDC_PSEFS,putative inner membrane protein,sp|C3K1G2|YIDC_PSEFS Membrane protein insertase YidC OS=Pseudomonas fluorescens (strain SBW25) OX=216595 GN=yidC PE=3 SV=1,560,560,560
zipA PFLU_4589,CAY51327,sp,ZIPA_PSEFS,putative cell division protein,sp|C3JYN4|ZIPA_PSEFS Cell division protein ZipA OS=Pseudomonas fluorescens (strain SBW25) OX=216595 GN=zipA PE=3 SV=1,287,287,287
