"This spreadsheet lists locus tags (column B) derived from IDs (column A) of CDS features present in the 2009 Sanger annotation but missing in the GCA ensembl annotation file from 2015. Cols C-E are the feature positions with respect to the new SBW25 assembly (Summers, Hugosson 2021). Entries in Col. F list the closest feature according to the 2015 annotation again with respect to the new assembly. Col. G lists the coordinates of the closest feature from Col. F.",,,,,,,
,,,,,,,
Color codes:,Corresponding feature exists but coordinates differ,,,,,,
,No corresponding feature found,,,,,,
,"Match found, coordinates equal",,,,,,
,overlap with misc. feature,,,,,,
,,,,,,,
,,,,,,,
,,,,,,,
,,,,,,,
,,,,,,,
ID,locus_tag,start,end,strand,closest/corresponding feature,,
PFLU0224 CDS,gene:PFLU_0224,244537,244692,+,in pflu_0223,244537..245125 (+ strand),
PFLU0224 CDS_1,gene:PFLU_0224_1,244694,245125,+,,244537,245125
PFLU0221 CDS,gene:PFLU_0221,243385,243753,+,nothing,,
PFLU0221 CDS_1,gene:PFLU_0221_1,243755,243811,+,,,
PFLU0221 CDS_2,gene:PFLU_0221_2,243811,243951,+,,,
PFLU0217 CDS,gene:PFLU_0217,242103,242636,-,pseudogene gene:PFLU_0216,242103..242636 (- strand) ,
PFLU0222 CDS,gene:PFLU_0222,244143,244364,+,nothing,,
PFLU0222 CDS_1,gene:PFLU_0222_1,244370,244432,+,,,
PFLU0222 CDS_2,gene:PFLU_0222_2,244432,244536,+,,,
PFLU0225 CDS,gene:PFLU_0225,245910,245981,+,nothing,,
PFLU0225 CDS_1,gene:PFLU_0225_1,245980,246114,+,,,
typA CDS,typA,382160,383980,+,gene:PFLU_0350 TypA/BipA → CDS:CAY46627,382160..383980 (+ strand),
PFLU0431 CDS,gene:PFLU_0431,480866,481597,-,"overlaps with biological_region_800, misc_340, HMMPfam_461, biological_region_802",,
PFLU0431 CDS_1,gene:PFLU_0431_1,479931,480866,-,,,
PFLU1226 CDS_1,gene:PFLU_1226_1,1361670,1362692,+,gene:PFLU_1226 (pseudogene),1361597..1362692 (+ strand),
PFLU1495 CDS,gene:PFLU_1495,1639428,1640786,+,gene:PFLU_1494 (pseudogene),1639428..1640786 (+ strand),
"lexA; Synonyms=exrA, spr, tsl, umuA; OrderedLocusNames=b4043; CDS","lexA; Synonyms=exrA, spr, tsl, umuA; OrderedLocusNames=b4043;",1709239,1709847,-,"gene:PFLU_1560 lexA; Synonyms=exrA, spr, tsl, umuA → CDS:CAY47809",1709239..1709847 (- strand),
sucA CDS,sucA,1984505,1987336,+,"gene:PFLU_1820 sucA → CDS:CAY48067 (synonyms: lexA, exrA, spr, tsl, umuA)",1984505..1987336 (+ strand),
sdhC CDS,sdhC,1981015,1981389,+,gene:PFLU_1816 sdhC → CDS:CAY48063,1981015..1981389 (+ strand),
PFLU1959 CDS,gene:PFLU_1959,2132439,2133203,+,"contained_in=[PFLUGI5, biological_region_3485, ReD23], contains=[region similar to PFLU2007 repeat region]",,
PFLU1959 CDS_1,gene:PFLU_1959_1,2133205,2133600,+,,,
PFLU1959 CDS_2,gene:PFLU_1959_2,2133600,2133761,+,,,
PFLU1959 CDS_3,gene:PFLU_1959_3,2133763,2133873,+,,,
PFLU1956 CDS_1,gene:PFLU_1956_1,2130891,2131274,+,gene:PFLU_1956 (pseudogene),2130565..2131274 (+ strand),
PFLU1926 CDS_1,gene:PFLU_1926_1,2101809,2101958,-,gene:PFLU_1926 (pseudogene),2101809..2102086 (- strand),
PFLU2007 CDS,gene:PFLU_2007,2176622,2176723,+,"overlaps with biological_region_3485, ReD23 difference, region similar to PFLU1959",,
PFLU2007 CDS_1,gene:PFLU_2007_1,2176727,2176789,+,,,
PFLU2007 CDS_2,gene:PFLU_2007_2,2176793,2176984,+,,,
PFLU2007 CDS_3,gene:PFLU_2007_3,2176965,2177000,+,,,
PFLU2007 CDS_4,gene:PFLU_2007_4,2177000,2177041,+,,,
PFLU2007 CDS_5,gene:PFLU_2007_5,2177041,2177058,+,,,
PFLU2007 CDS_6,gene:PFLU_2007_6,2177067,2177126,+,,,
PFLU2007 CDS_7,gene:PFLU_2007_7,2177132,2177269,+,,,
PFLU2006 CDS_1,gene:PFLU_2006_1,2176554,2176595,-,gene:PFLU_2006 (pseudogene) → pseudogenic_transcript transcript:PFLU_2006 → exon exon_1995,2176604..2176615 (- strand),
PFLU2006 CDS_2,gene:PFLU_2006_2,2176381,2176548,-,gene:PFLU_2006 (pseudogene) → pseudogenic_transcript transcript:PFLU_2006 → exon exon_1994,2176554..2176595 (- strand),
PFLU2241 CDS_1,gene:PFLU_2241_1,2432580,2432981,+,"gene:PFLU_2241 (pseudogene) → pseudogenic_transcript transcript:PFLU_2241 → exon_2228, exon_2229",2432580..2432981 (+ strand),
PFLU2259 CDS_1,gene:PFLU_2259_1,2448461,2448742,-,"gene:PFLU_2259 (pseudogene) → exon_2246, exon_2247",2448461..2448993 (- strand),
PFLU2503A CDS_1,gene:PFLU_2503A_1,2717127,2717351,+,gene:PFLU_2503A (pseudogene),2716706..2717354 (+ strand),
PFLU2485 CDS_1,gene:PFLU_2485_1,2699296,2699499,+,"gene:PFLU_2485 (pseudogene) → exon_2464, exon_2465",2699109..2699499 (+ strand),
viscC CDS,viscC,2793956,2806840,+,gene:PFLU_2552 → CDS:CAY48788,2793956..2806840 (+ strand),
viscB CDS,viscB,2806837,2818158,+,gene:PFLU_2553 → CDS:CAY48789,,
PFLU2661 CDS_1,gene:PFLU_2661_1,2932255,2933718,+,"gene:PFLU_2661 → exon_2637, exon_2638",,
PFLU3051 CDS,gene:PFLU_3051,3328204,3329052,-,gene:PFLU_3051.1 → CDS CDS:CAY49280,3328204..3329052 (- strand),
PFLU3051 CDS_1,gene:PFLU_3051_1,3329815,3330012,+,gene:PFLU_3051.2 (pseudogene) ,3329815..3330012 (+ strand),
PFLU3099 CDS_1,gene:PFLU_3099_1,3384324,3384785,-,"gene:PFLU_3099 (pseudogene) → .. → exon_3075, exon_3076",3384324..3385294 (- strand),
PFLU3863 CDS,gene:PFLU_3863,4258463,4260679,+,no gene or pseudogene. numerous biological_regions and one repeat region FLUR1 score=15.14,,
PFLU3863 CDS_1,gene:PFLU_3863_1,4260679,4261383,+,,,
viscA CDS,viscA,4428720,4435016,-,gene:PFLU_4007 → transcript:CAY50416 → CDS:CAY50416,4428720..4435016 (- strand),
PFLU4302 CDS_1,gene:PFLU_4302_1,4742368,4744779,-,"gene:PFLU_4302 → 2 pseudogenic transcripts, 3 exons",4742368..4744946 (- strand),
PFLU4299 CDS_1,gene:PFLU_4299_1,4741230,4741352,+,"gene:PFLU_4299 → 1 pseudogenic_transcript, 3 exons",4741076..4741426 (+ strand),
PFLU4299 CDS_2,gene:PFLU_4299_2,4741373,4741426,+,,,
flhB CDS,flhB,4888208,4889344,-,gene:PFLU_4422,4888208..4889344 (- strand),
PFLU4475 CDS,gene:PFLU_4475,4943934,4943954,+,nothing,,
PFLU4475 CDS_1,gene:PFLU_4475_1,4943953,4944216,+,,,
PFLU4770 CDS,gene:PFLU_4770,5253976,5254164,+,"overlap with PFLUGI10, biological_region_8634, ReD48 difference",,
PFLU4770 CDS_1,gene:PFLU_4770_1,5254164,5254496,+,,,
PFLU5452 CDS,gene:PFLU_5452,5983888,5984061,+,"gene:PFLU_5451 (pseudogene) → 1 transcript, 2 exons",5983888..5984492 (+ strand),
PFLU5452 CDS_1,gene:PFLU_5452_1,5984064,5984492,+,,,
elbB CDS,elbB,6474749,6475420,+,gene:PFLU_5916,6474749..6475420 (+ strand),
atpF CDS,atpF,6706664,6707134,-,gene:PFLU_6122,6706664..6707134 (- strand),
