CAY46291
CAY46291
CAY46292
CAY46293
CAY46297
CAY46299
CAY46304
CAY46306
CAY46310
CAY46311
CAY46312
CAY46313
CAY46314
CAY46315
CAY46316
CAY46319
CAY46323
CAY46324
CAY46325
CAY46326
CAY46328
CAY46329
CAY46330
CAY46331
CAY46332
CAY46334
CAY46335
CAY46336
CAY46337
CAY46339
CAY46341
CAY46342
CAY46343
CAY46344
CAY46345
CAY46346
CAY46347
CAY46348
CAY46349
CAY46350
CAY46351
CAY46352
CAY46353
CAY46357
CAY46360
CAY46361
CAY46363
CAY46366
CAY46369
CAY46371
CAY46372
CAY46374
CAY46375
CAY46376
CAY46378
CAY46379
CAY46380
CAY46381
CAY46382
CAY46383
CAY46384
CAY46385
CAY46386
CAY46387
CAY46388
CAY46389
CAY46390
CAY46391
CAY46392
CAY46393
CAY46394
CAY46396
CAY46398
CAY46399
CAY46400
CAY46401
CAY46402
CAY46403
CAY46404
CAY46405
CAY46406
CAY46407
CAY46409
CAY46410
CAY46411
CAY46413
CAY46414
CAY46415
CAY46416
CAY46417
CAY46418
CAY46419
CAY46420
CAY46421
CAY46422
CAY46423
CAY46424
CAY46425
CAY46426
CAY46427
CAY46428
CAY46429
CAY46430
CAY46431
CAY46432
CAY46433
CAY46434
CAY46435
CAY46436
CAY46437
CAY46438
CAY46439
CAY46440
CAY46441
CAY46442
CAY46443
CAY46444
CAY46445
CAY46446
CAY46447
CAY46448
CAY46449
CAY46450
CAY46451
CAY46452
CAY46453
CAY46454
CAY46455
CAY46456
CAY46457
CAY46458
CAY46459
CAY46460
CAY46461
CAY46462
CAY46463
CAY46466
CAY46468
CAY46469
CAY46470
CAY46475
CAY46476
CAY46477
CAY46478
CAY46480
CAY46481
CAY46483
CAY46484
CAY46485
CAY46486
CAY46487
CAY46488
CAY46489
CAY46490
CAY46491
CAY46492
CAY46493
CAY46494
CAY46495
CAY46496
CAY46497
CAY46498
CAY46500
CAY46501
CAY46506
CAY46507
CAY46509
CAY46510
CAY46511
CAY46512
CAY46513
CAY46514
CAY46515
CAY46516
CAY46517
CAY46518
CAY46519
CAY46520
CAY46521
CAY46522
CAY46523
CAY46524
CAY46525
CAY46528
CAY46529
CAY46530
CAY46536
CAY46537
CAY46541
CAY46544
CAY46547
CAY46548
CAY46550
CAY46551
CAY46552
CAY46553
CAY46554
CAY46555
CAY46556
CAY46557
CAY46558
CAY46559
CAY46560
CAY46562
CAY46563
CAY46564
CAY46565
CAY46566
CAY46570
CAY46571
CAY46572
CAY46576
CAY46577
CAY46587
CAY46588
CAY46589
CAY46590
CAY46592
CAY46594
CAY46595
CAY46596
CAY46597
CAY46598
CAY46599
CAY46600
CAY46602
CAY46603
CAY46606
CAY46609
CAY46610
CAY46611
CAY46613
CAY46615
CAY46618
CAY46619
CAY46622
CAY46623
CAY46624
CAY46627
CAY46628
CAY46630
CAY46631
CAY46633
CAY46634
CAY46635
CAY46637
CAY46639
CAY46640
CAY46641
CAY46642
CAY46643
CAY46645
CAY46646
CAY46647
CAY46652
CAY46653
CAY46654
CAY46655
CAY46656
CAY46657
CAY46658
CAY46661
CAY46662
CAY46663
CAY46664
CAY46665
CAY46667
CAY46668
CAY46670
CAY46674
CAY46677
CAY46681
CAY46682
CAY46683
CAY46685
CAY46686
CAY46690
CAY46694
CAY46695
CAY46696
CAY46699
CAY46700
CAY46701
CAY46702
CAY46703
CAY46704
CAY46705
CAY46706
CAY46707
CAY46709
CAY46710
CAY46711
CAY46712
CAY46713
CAY46714
CAY46715
CAY46716
CAY46718
CAY46719
CAY46720
CAY46721
CAY46723
CAY46724
CAY46725
CAY46726
CAY46729
CAY46730
CAY46731
CAY46732
CAY46737
CAY46742
CAY46743
CAY46744
CAY46745
CAY46747
CAY46748
CAY46749
CAY46750
CAY46751
CAY46752
CAY46753
CAY46754
CAY46755
CAY46756
CAY46759
CAY46760
CAY46761
CAY46762
CAY46766
CAY46768
CAY46769
CAY46770
CAY46771
CAY46772
CAY46773
CAY46775
CAY46777
CAY46778
CAY46779
CAY46782
CAY46785
CAY46786
CAY46788
CAY46789
CAY46790
CAY46791
CAY46797
CAY46798
CAY46799
CAY46801
CAY46803
CAY46808
CAY46811
CAY46812
CAY46813
CAY46814
CAY46815
CAY46816
CAY46820
CAY46821
CAY46822
CAY46823
CAY46828
CAY46829
CAY46830
CAY46831
CAY46833
CAY46835
CAY46836
CAY46837
CAY46838
CAY46839
CAY46841
CAY46842
CAY46844
CAY46845
CAY46847
CAY46848
CAY46851
CAY46852
CAY46854
CAY46855
CAY46856
CAY46857
CAY46858
CAY46859
CAY46860
CAY46861
CAY46862
CAY46863
CAY46864
CAY46865
CAY46866
CAY46867
CAY46868
CAY46869
CAY46870
CAY46873
CAY46876
CAY46877
CAY46878
CAY46879
CAY46884
CAY46889
CAY46890
CAY46891
CAY46892
CAY46893
CAY46895
CAY46897
CAY46898
CAY46899
CAY46900
CAY46901
CAY46902
CAY46903
CAY46904
CAY46905
CAY46906
CAY46907
CAY46908
CAY46909
CAY46910
CAY46911
CAY46912
CAY46913
CAY46914
CAY46915
CAY46916
CAY46917
CAY46918
CAY46919
CAY46920
CAY46921
CAY46922
CAY46923
CAY46924
CAY46927
CAY46928
CAY46929
CAY46930
CAY46931
CAY46932
CAY46933
CAY46934
CAY46935
CAY46936
CAY46937
CAY46938
CAY46939
CAY46940
CAY46941
CAY46942
CAY46945
CAY46946
CAY46947
CAY46948
CAY46949
CAY46950
CAY46951
CAY46952
CAY46953
CAY46955
CAY46956
CAY46957
CAY46958
CAY46959
CAY46960
CAY46961
CAY46962
CAY46963
CAY46965
CAY46966
CAY46968
CAY46970
CAY46971
CAY46972
CAY46973
CAY46975
CAY46976
CAY46981
CAY46982
CAY46983
CAY46984
CAY46985
CAY46986
CAY46987
CAY46988
CAY46989
CAY46990
CAY46991
CAY46992
CAY46993
CAY46994
CAY46995
CAY46996
CAY46997
CAY46998
CAY47000
CAY47003
CAY47004
CAY47009
CAY47010
CAY47011
CAY47012
CAY47013
CAY47014
CAY47016
CAY47017
CAY47019
CAY47020
CAY47021
CAY47022
CAY47023
CAY47025
CAY47026
CAY47027
CAY47032
CAY47035
CAY47041
CAY47042
CAY47043
CAY47044
CAY47045
CAY47046
CAY47047
CAY47048
CAY47050
CAY47053
CAY47054
CAY47055
CAY47056
CAY47057
CAY47062
CAY47063
CAY47065
CAY47067
CAY47068
CAY47070
CAY47072
CAY47075
CAY47076
CAY47077
CAY47078
CAY47079
CAY47081
CAY47082
CAY47083
CAY47085
CAY47086
CAY47092
CAY47096
CAY47097
CAY47098
CAY47099
CAY47100
CAY47101
CAY47102
CAY47103
CAY47104
CAY47105
CAY47111
CAY47114
CAY47117
CAY47118
CAY47120
CAY47121
CAY47122
CAY47123
CAY47125
CAY47126
CAY47133
CAY47135
CAY47136
CAY47137
CAY47138
CAY47139
CAY47140
CAY47142
CAY47144
CAY47145
CAY47146
CAY47148
CAY47150
CAY47151
CAY47152
CAY47155
CAY47156
CAY47157
CAY47158
CAY47159
CAY47160
CAY47164
CAY47167
CAY47168
CAY47169
CAY47170
CAY47172
CAY47173
CAY47174
CAY47175
CAY47176
CAY47177
CAY47178
CAY47179
CAY47180
CAY47181
CAY47182
CAY47183
CAY47184
CAY47185
CAY47187
CAY47188
CAY47189
CAY47190
CAY47191
CAY47193
CAY47194
CAY47195
CAY47196
CAY47197
CAY47198
CAY47200
CAY47201
CAY47202
CAY47203
CAY47204
CAY47206
CAY47207
CAY47216
CAY47220
CAY47221
CAY47223
CAY47224
CAY47226
CAY47227
CAY47228
CAY47229
CAY47230
CAY47231
CAY47232
CAY47234
CAY47235
CAY47236
CAY47237
CAY47238
CAY47239
CAY47240
CAY47241
CAY47242
CAY47243
CAY47253
CAY47254
CAY47256
CAY47257
CAY47258
CAY47264
CAY47265
CAY47266
CAY47267
CAY47268
CAY47269
CAY47270
CAY47271
CAY47272
CAY47273
CAY47274
CAY47275
CAY47276
CAY47277
CAY47278
CAY47279
CAY47280
CAY47281
CAY47282
CAY47283
CAY47284
CAY47285
CAY47286
CAY47287
CAY47288
CAY47290
CAY47291
CAY47292
CAY47293
CAY47294
CAY47295
CAY47296
CAY47297
CAY47300
CAY47301
CAY47302
CAY47303
CAY47305
CAY47307
CAY47308
CAY47309
CAY47310
CAY47311
CAY47312
CAY47313
CAY47314
CAY47315
CAY47317
CAY47318
CAY47320
CAY47321
CAY47328
CAY47329
CAY47330
CAY47331
CAY47332
CAY47335
CAY47336
CAY47337
CAY47338
CAY47339
CAY47340
CAY47341
CAY47342
CAY47343
CAY47344
CAY47345
CAY47346
CAY47347
CAY47348
CAY47350
CAY47351
CAY47352
CAY47353
CAY47354
CAY47355
CAY47356
CAY47357
CAY47358
CAY47359
CAY47360
CAY47361
CAY47362
CAY47363
CAY47364
CAY47365
CAY47366
CAY47367
CAY47368
CAY47370
CAY47372
CAY47373
CAY47374
CAY47375
CAY47376
CAY47378
CAY47379
CAY47380
CAY47381
CAY47382
CAY47383
CAY47384
CAY47385
CAY47386
CAY47387
CAY47388
CAY47389
CAY47390
CAY47391
CAY47392
CAY47393
CAY47394
CAY47395
CAY47396
CAY47397
CAY47398
CAY47407
CAY47408
CAY47410
CAY47411
CAY47414
CAY47417
CAY47419
CAY47420
CAY47422
CAY47427
CAY47428
CAY47429
CAY47430
CAY47431
CAY47432
CAY47433
CAY47434
CAY47435
CAY47436
CAY47437
CAY47438
CAY47439
CAY47440
CAY47441
CAY47442
CAY47443
CAY47444
CAY47445
CAY47446
CAY47447
CAY47448
CAY47449
CAY47452
CAY47453
CAY47454
CAY47455
CAY47457
CAY47459
CAY47460
CAY47461
CAY47462
CAY47463
CAY47466
CAY47468
CAY47469
CAY47470
CAY47471
CAY47472
CAY47473
CAY47474
CAY47475
CAY47476
CAY47477
CAY47478
CAY47479
CAY47480
CAY47481
CAY47482
CAY47483
CAY47484
CAY47487
CAY47488
CAY47489
CAY47490
CAY47491
CAY47492
CAY47493
CAY47494
CAY47495
CAY47496
CAY47499
CAY47500
CAY47501
CAY47502
CAY47503
CAY47504
CAY47505
CAY47506
CAY47507
CAY47508
CAY47509
CAY47510
CAY47511
CAY47512
CAY47514
CAY47517
CAY47518
CAY47519
CAY47520
CAY47521
CAY47522
CAY47523
CAY47524
CAY47535
CAY47536
CAY47544
CAY47550
CAY47552
CAY47554
CAY47557
CAY47560
CAY47561
CAY47562
CAY47564
CAY47567
CAY47568
CAY47569
CAY47570
CAY47571
CAY47572
CAY47573
CAY47574
CAY47575
CAY47576
CAY47577
CAY47578
CAY47579
CAY47580
CAY47582
CAY47584
CAY47585
CAY47587
CAY47588
CAY47589
CAY47590
CAY47591
CAY47592
CAY47593
CAY47594
CAY47595
CAY47601
CAY47602
CAY47603
CAY47604
CAY47605
CAY47607
CAY47608
CAY47609
CAY47610
CAY47611
CAY47612
CAY47614
CAY47617
CAY47624
CAY47626
CAY47627
CAY47628
CAY47629
CAY47630
CAY47635
CAY47636
CAY47637
CAY47638
CAY47640
CAY47641
CAY47642
CAY47643
CAY47644
CAY47645
CAY47646
CAY47647
CAY47648
CAY47649
CAY47650
CAY47651
CAY47653
CAY47654
CAY47655
CAY47656
CAY47657
CAY47658
CAY47659
CAY47660
CAY47661
CAY47662
CAY47663
CAY47664
CAY47666
CAY47667
CAY47668
CAY47669
CAY47670
CAY47671
CAY47672
CAY47673
CAY47675
CAY47676
CAY47677
CAY47679
CAY47680
CAY47681
CAY47682
CAY47683
CAY47684
CAY47685
CAY47688
CAY47690
CAY47691
CAY47692
CAY47693
CAY47695
CAY47696
CAY47697
CAY47698
CAY47699
CAY47700
CAY47701
CAY47702
CAY47703
CAY47705
CAY47706
CAY47707
CAY47708
CAY47709
CAY47711
CAY47712
CAY47713
CAY47714
CAY47715
CAY47716
CAY47717
CAY47722
CAY47723
CAY47724
CAY47725
CAY47726
CAY47727
CAY47729
CAY47730
CAY47732
CAY47733
CAY47734
CAY47735
CAY47736
CAY47737
CAY47738
CAY47739
CAY47741
CAY47742
CAY47743
CAY47744
CAY47746
CAY47747
CAY47748
CAY47749
CAY47750
CAY47751
CAY47752
CAY47753
CAY47754
CAY47755
CAY47756
CAY47757
CAY47758
CAY47760
CAY47761
CAY47763
CAY47764
CAY47765
CAY47766
CAY47767
CAY47768
CAY47769
CAY47770
CAY47771
CAY47772
CAY47773
CAY47774
CAY47775
CAY47776
CAY47777
CAY47778
CAY47779
CAY47780
CAY47781
CAY47782
CAY47783
CAY47784
CAY47785
CAY47786
CAY47787
CAY47788
CAY47790
CAY47792
CAY47793
CAY47796
CAY47797
CAY47798
CAY47799
CAY47800
CAY47801
CAY47804
CAY47806
CAY47807
CAY47808
CAY47810
CAY47812
CAY47813
CAY47818
CAY47819
CAY47820
CAY47822
CAY47823
CAY47825
CAY47826
CAY47827
CAY47828
CAY47829
CAY47830
CAY47831
CAY47832
CAY47835
CAY47836
CAY47837
CAY47840
CAY47841
CAY47842
CAY47843
CAY47844
CAY47845
CAY47846
CAY47847
CAY47850
CAY47851
CAY47852
CAY47853
CAY47854
CAY47855
CAY47856
CAY47857
CAY47858
CAY47859
CAY47860
CAY47861
CAY47862
CAY47865
CAY47866
CAY47867
CAY47868
CAY47869
CAY47870
CAY47871
CAY47872
CAY47873
CAY47875
CAY47876
CAY47877
CAY47878
CAY47879
CAY47880
CAY47881
CAY47882
CAY47883
CAY47884
CAY47885
CAY47886
CAY47887
CAY47888
CAY47890
CAY47891
CAY47896
CAY47899
CAY47901
CAY47902
CAY47903
CAY47904
CAY47905
CAY47909
CAY47911
CAY47912
CAY47913
CAY47914
CAY47915
CAY47916
CAY47917
CAY47918
CAY47919
CAY47920
CAY47921
CAY47922
CAY47923
CAY47929
CAY47930
CAY47931
CAY47932
CAY47933
CAY47934
CAY47935
CAY47936
CAY47937
CAY47938
CAY47939
CAY47940
CAY47941
CAY47943
CAY47945
CAY47946
CAY47947
CAY47948
CAY47949
CAY47951
CAY47953
CAY47954
CAY47955
CAY47956
CAY47957
CAY47959
CAY47960
CAY47961
CAY47962
CAY47963
CAY47966
CAY47967
CAY47968
CAY47969
CAY47970
CAY47972
CAY47973
CAY47975
CAY47978
CAY47980
CAY47982
CAY47983
CAY47984
CAY47985
CAY47986
CAY47987
CAY47988
CAY47989
CAY47991
CAY47992
CAY47993
CAY47994
CAY47995
CAY47996
CAY47997
CAY47998
CAY47999
CAY48000
CAY48003
CAY48004
CAY48013
CAY48014
CAY48015
CAY48016
CAY48017
CAY48018
CAY48019
CAY48020
CAY48021
CAY48022
CAY48027
CAY48028
CAY48029
CAY48037
CAY48038
CAY48039
CAY48040
CAY48042
CAY48044
CAY48045
CAY48047
CAY48051
CAY48052
CAY48053
CAY48054
CAY48055
CAY48056
CAY48057
CAY48058
CAY48059
CAY48060
CAY48064
CAY48073
CAY48074
CAY48075
CAY48076
CAY48078
CAY48079
CAY48080
CAY48081
CAY48084
CAY48085
CAY48086
CAY48087
CAY48088
CAY48089
CAY48090
CAY48091
CAY48092
CAY48093
CAY48094
CAY48095
CAY48096
CAY48097
CAY48099
CAY48100
CAY48101
CAY48102
CAY48103
CAY48104
CAY48105
CAY48106
CAY48107
CAY48108
CAY48109
CAY48110
CAY48112
CAY48113
CAY48114
CAY48115
CAY48116
CAY48117
CAY48118
CAY48119
CAY48120
CAY48122
CAY48124
CAY48125
CAY48126
CAY48127
CAY48128
CAY48129
CAY48130
CAY48131
CAY48132
CAY48133
CAY48134
CAY48135
CAY48136
CAY48137
CAY48138
CAY48139
CAY48140
CAY48141
CAY48142
CAY48143
CAY48144
CAY48146
CAY48149
CAY48150
CAY48151
CAY48152
CAY48153
CAY48154
CAY48155
CAY48156
CAY48157
CAY48158
CAY48159
CAY48160
CAY48161
CAY48162
CAY48163
CAY48164
CAY48165
CAY48166
CAY48167
CAY48168
CAY48169
CAY48170
CAY48172
CAY48173
CAY48174
CAY48175
CAY48176
CAY48177
CAY48178
CAY48179
CAY48180
CAY48182
CAY48184
CAY48185
CAY48186
CAY48187
CAY48188
CAY48189
CAY48190
CAY48192
CAY48193
CAY48194
CAY48195
CAY48196
CAY48197
CAY48198
CAY48199
CAY48201
CAY48203
CAY48204
CAY48205
CAY48206
CAY48207
CAY48208
CAY48211
CAY48212
CAY48213
CAY48215
CAY48216
CAY48217
CAY48218
CAY48219
CAY48220
CAY48221
CAY48222
CAY48223
CAY48224
CAY48225
CAY48226
CAY48227
CAY48228
CAY48229
CAY48230
CAY48231
CAY48232
CAY48233
CAY48234
CAY48235
CAY48236
CAY48237
CAY48238
CAY48239
CAY48241
CAY48242
CAY48243
CAY48244
CAY48245
CAY48246
CAY48247
CAY48251
CAY48252
CAY48253
CAY48254
CAY48256
CAY48257
CAY48258
CAY48261
CAY48262
CAY48263
CAY48264
CAY48265
CAY48266
CAY48267
CAY48268
CAY48270
CAY48271
CAY48272
CAY48275
CAY48276
CAY48277
CAY48278
CAY48279
CAY48280
CAY48281
CAY48282
CAY48283
CAY48284
CAY48285
CAY48286
CAY48287
CAY48288
CAY48289
CAY48290
CAY48293
CAY48294
CAY48296
CAY48297
CAY48298
CAY48300
CAY48302
CAY48303
CAY48304
CAY48306
CAY48307
CAY48309
CAY48310
CAY48311
CAY48312
CAY48313
CAY48314
CAY48315
CAY48316
CAY48317
CAY48318
CAY48319
CAY48320
CAY48321
CAY48322
CAY48323
CAY48325
CAY48326
CAY48327
CAY48328
CAY48329
CAY48330
CAY48331
CAY48332
CAY48333
CAY48334
CAY48335
CAY48336
CAY48337
CAY48339
CAY48340
CAY48341
CAY48342
CAY48343
CAY48344
CAY48345
CAY48346
CAY48347
CAY48348
CAY48350
CAY48351
CAY48352
CAY48353
CAY48354
CAY48355
CAY48356
CAY48357
CAY48358
CAY48359
CAY48360
CAY48361
CAY48362
CAY48363
CAY48364
CAY48366
CAY48367
CAY48368
CAY48369
CAY48370
CAY48371
CAY48372
CAY48373
CAY48374
CAY48375
CAY48376
CAY48377
CAY48378
CAY48379
CAY48380
CAY48381
CAY48382
CAY48383
CAY48384
CAY48385
CAY48387
CAY48388
CAY48389
CAY48392
CAY48393
CAY48394
CAY48395
CAY48397
CAY48398
CAY48399
CAY48400
CAY48401
CAY48402
CAY48403
CAY48404
CAY48405
CAY48406
CAY48407
CAY48408
CAY48409
CAY48410
CAY48411
CAY48412
CAY48413
CAY48414
CAY48415
CAY48417
CAY48418
CAY48419
CAY48420
CAY48423
CAY48424
CAY48425
CAY48426
CAY48431
CAY48432
CAY48433
CAY48434
CAY48435
CAY48436
CAY48437
CAY48438
CAY48439
CAY48440
CAY48441
CAY48442
CAY48443
CAY48444
CAY48445
CAY48446
CAY48447
CAY48448
CAY48449
CAY48450
CAY48451
CAY48452
CAY48453
CAY48454
CAY48455
CAY48456
CAY48458
CAY48460
CAY48462
CAY48463
CAY48464
CAY48465
CAY48466
CAY48467
CAY48468
CAY48469
CAY48470
CAY48471
CAY48472
CAY48473
CAY48474
CAY48475
CAY48476
CAY48478
CAY48479
CAY48480
CAY48481
CAY48482
CAY48483
CAY48484
CAY48485
CAY48486
CAY48487
CAY48488
CAY48489
CAY48490
CAY48492
CAY48493
CAY48495
CAY48496
CAY48497
CAY48498
CAY48500
CAY48501
CAY48502
CAY48503
CAY48504
CAY48505
CAY48506
CAY48507
CAY48508
CAY48509
CAY48510
CAY48511
CAY48512
CAY48513
CAY48514
CAY48515
CAY48516
CAY48517
CAY48518
CAY48519
CAY48520
CAY48522
CAY48523
CAY48524
CAY48525
CAY48526
CAY48531
CAY48532
CAY48538
CAY48539
CAY48540
CAY48541
CAY48542
CAY48543
CAY48544
CAY48545
CAY48547
CAY48548
CAY48549
CAY48550
CAY48551
CAY48555
CAY48556
CAY48557
CAY48558
CAY48559
CAY48561
CAY48562
CAY48563
CAY48564
CAY48566
CAY48567
CAY48568
CAY48569
CAY48570
CAY48571
CAY48572
CAY48573
CAY48574
CAY48575
CAY48576
CAY48577
CAY48578
CAY48579
CAY48580
CAY48581
CAY48582
CAY48583
CAY48584
CAY48585
CAY48586
CAY48587
CAY48588
CAY48589
CAY48591
CAY48592
CAY48593
CAY48594
CAY48595
CAY48596
CAY48597
CAY48598
CAY48599
CAY48600
CAY48601
CAY48602
CAY48603
CAY48604
CAY48608
CAY48609
CAY48611
CAY48613
CAY48614
CAY48615
CAY48616
CAY48617
CAY48618
CAY48619
CAY48620
CAY48621
CAY48622
CAY48623
CAY48624
CAY48625
CAY48626
CAY48627
CAY48629
CAY48630
CAY48631
CAY48633
CAY48634
CAY48635
CAY48636
CAY48637
CAY48639
CAY48640
CAY48641
CAY48642
CAY48643
CAY48644
CAY48645
CAY48646
CAY48647
CAY48648
CAY48649
CAY48650
CAY48651
CAY48652
CAY48653
CAY48654
CAY48655
CAY48656
CAY48657
CAY48658
CAY48659
CAY48660
CAY48661
CAY48662
CAY48663
CAY48664
CAY48665
CAY48666
CAY48667
CAY48668
CAY48669
CAY48670
CAY48671
CAY48673
CAY48674
CAY48675
CAY48676
CAY48677
CAY48678
CAY48680
CAY48682
CAY48685
CAY48687
CAY48689
CAY48690
CAY48691
CAY48692
CAY48693
CAY48694
CAY48695
CAY48698
CAY48700
CAY48702
CAY48704
CAY48705
CAY48706
CAY48707
CAY48709
CAY48710
CAY48712
CAY48713
CAY48714
CAY48715
CAY48716
CAY48717
CAY48718
CAY48719
CAY48720
CAY48723
CAY48724
CAY48725
CAY48726
CAY48727
CAY48730
CAY48731
CAY48732
CAY48733
CAY48734
CAY48735
CAY48736
CAY48737
CAY48738
CAY48740
CAY48741
CAY48742
CAY48743
CAY48744
CAY48745
CAY48746
CAY48747
CAY48748
CAY48749
CAY48750
CAY48751
CAY48752
CAY48753
CAY48754
CAY48758
CAY48759
CAY48760
CAY48761
CAY48762
CAY48763
CAY48764
CAY48765
CAY48766
CAY48768
CAY48769
CAY48771
CAY48772
CAY48773
CAY48774
CAY48775
CAY48776
CAY48777
CAY48778
CAY48782
CAY48783
CAY48784
CAY48785
CAY48786
CAY48787
CAY48788
CAY48789
CAY48790
CAY48792
CAY48795
CAY48796
CAY48797
CAY48799
CAY48800
CAY48801
CAY48802
CAY48803
CAY48804
CAY48805
CAY48806
CAY48807
CAY48808
CAY48809
CAY48810
CAY48811
CAY48812
CAY48813
CAY48815
CAY48816
CAY48817
CAY48818
CAY48819
CAY48820
CAY48821
CAY48822
CAY48823
CAY48824
CAY48825
CAY48827
CAY48828
CAY48829
CAY48830
CAY48831
CAY48833
CAY48835
CAY48836
CAY48837
CAY48838
CAY48839
CAY48840
CAY48841
CAY48842
CAY48843
CAY48844
CAY48845
CAY48846
CAY48847
CAY48848
CAY48849
CAY48850
CAY48851
CAY48853
CAY48855
CAY48856
CAY48857
CAY48860
CAY48861
CAY48862
CAY48863
CAY48864
CAY48865
CAY48866
CAY48867
CAY48868
CAY48870
CAY48871
CAY48872
CAY48873
CAY48874
CAY48876
CAY48877
CAY48880
CAY48881
CAY48882
CAY48883
CAY48884
CAY48885
CAY48887
CAY48888
CAY48889
CAY48890
CAY48891
CAY48892
CAY48895
CAY48896
CAY48898
CAY48899
CAY48900
CAY48901
CAY48902
CAY48903
CAY48904
CAY48905
CAY48907
CAY48908
CAY48909
CAY48910
CAY48911
CAY48912
CAY48913
CAY48914
CAY48915
CAY48916
CAY48917
CAY48918
CAY48919
CAY48920
CAY48921
CAY48922
CAY48924
CAY48925
CAY48927
CAY48928
CAY48929
CAY48930
CAY48931
CAY48932
CAY48933
CAY48934
CAY48935
CAY48936
CAY48937
CAY48938
CAY48940
CAY48941
CAY48942
CAY48943
CAY48944
CAY48945
CAY48946
CAY48947
CAY48948
CAY48949
CAY48950
CAY48951
CAY48952
CAY48955
CAY48956
CAY48957
CAY48958
CAY48959
CAY48960
CAY48962
CAY48963
CAY48965
CAY48967
CAY48968
CAY48969
CAY48972
CAY48973
CAY48974
CAY48975
CAY48976
CAY48977
CAY48978
CAY48979
CAY48983
CAY48984
CAY48985
CAY48986
CAY48987
CAY48988
CAY48989
CAY48990
CAY48991
CAY48992
CAY48994
CAY48995
CAY48996
CAY48997
CAY48998
CAY48999
CAY49000
CAY49001
CAY49002
CAY49003
CAY49004
CAY49005
CAY49006
CAY49007
CAY49008
CAY49009
CAY49010
CAY49011
CAY49012
CAY49013
CAY49014
CAY49015
CAY49016
CAY49019
CAY49020
CAY49021
CAY49022
CAY49023
CAY49024
CAY49025
CAY49027
CAY49028
CAY49029
CAY49030
CAY49032
CAY49033
CAY49034
CAY49035
CAY49036
CAY49037
CAY49038
CAY49039
CAY49040
CAY49042
CAY49043
CAY49044
CAY49045
CAY49046
CAY49047
CAY49048
CAY49049
CAY49050
CAY49051
CAY49052
CAY49053
CAY49054
CAY49055
CAY49056
CAY49057
CAY49058
CAY49059
CAY49061
CAY49062
CAY49063
CAY49064
CAY49065
CAY49066
CAY49067
CAY49068
CAY49069
CAY49070
CAY49071
CAY49072
CAY49073
CAY49074
CAY49075
CAY49076
CAY49077
CAY49078
CAY49079
CAY49080
CAY49081
CAY49082
CAY49084
CAY49085
CAY49086
CAY49087
CAY49088
CAY49089
CAY49090
CAY49091
CAY49092
CAY49093
CAY49094
CAY49095
CAY49096
CAY49097
CAY49098
CAY49099
CAY49100
CAY49101
CAY49102
CAY49103
CAY49104
CAY49105
CAY49106
CAY49107
CAY49108
CAY49109
CAY49110
CAY49111
CAY49112
CAY49113
CAY49114
CAY49115
CAY49116
CAY49117
CAY49118
CAY49119
CAY49120
CAY49121
CAY49122
CAY49123
CAY49124
CAY49125
CAY49126
CAY49127
CAY49128
CAY49129
CAY49130
CAY49131
CAY49132
CAY49133
CAY49134
CAY49135
CAY49136
CAY49137
CAY49138
CAY49139
CAY49140
CAY49141
CAY49142
CAY49143
CAY49145
CAY49146
CAY49147
CAY49148
CAY49149
CAY49150
CAY49151
CAY49152
CAY49153
CAY49154
CAY49155
CAY49157
CAY49159
CAY49160
CAY49161
CAY49162
CAY49163
CAY49164
CAY49165
CAY49166
CAY49167
CAY49168
CAY49169
CAY49170
CAY49171
CAY49172
CAY49173
CAY49174
CAY49175
CAY49176
CAY49177
CAY49178
CAY49179
CAY49180
CAY49181
CAY49182
CAY49183
CAY49184
CAY49185
CAY49189
CAY49191
CAY49192
CAY49193
CAY49194
CAY49195
CAY49197
CAY49201
CAY49202
CAY49203
CAY49206
CAY49207
CAY49208
CAY49209
CAY49210
CAY49211
CAY49212
CAY49213
CAY49216
CAY49221
CAY49222
CAY49223
CAY49224
CAY49225
CAY49226
CAY49227
CAY49228
CAY49231
CAY49232
CAY49235
CAY49236
CAY49237
CAY49238
CAY49239
CAY49240
CAY49241
CAY49242
CAY49243
CAY49244
CAY49245
CAY49246
CAY49247
CAY49248
CAY49249
CAY49250
CAY49251
CAY49252
CAY49253
CAY49254
CAY49255
CAY49256
CAY49257
CAY49259
CAY49261
CAY49262
CAY49263
CAY49264
CAY49265
CAY49266
CAY49267
CAY49269
CAY49270
CAY49271
CAY49272
CAY49273
CAY49274
CAY49276
CAY49277
CAY49278
CAY49279
CAY49280
CAY49282
CAY49283
CAY49284
CAY49285
CAY49287
CAY49289
CAY49290
CAY49291
CAY49292
CAY49293
CAY49294
CAY49295
CAY49296
CAY49297
CAY49298
CAY49299
CAY49300
CAY49301
CAY49302
CAY49303
CAY49304
CAY49305
CAY49306
CAY49307
CAY49308
CAY49309
CAY49310
CAY49311
CAY49312
CAY49313
CAY49314
CAY49315
CAY49316
CAY49317
CAY49318
CAY49319
CAY49320
CAY49321
CAY49322
CAY49323
CAY49324
CAY49326
CAY49327
CAY49328
CAY49330
CAY49331
CAY49332
CAY49333
CAY49334
CAY49335
CAY49336
CAY49337
CAY49338
CAY49339
CAY49340
CAY49341
CAY49342
CAY49343
CAY49344
CAY49345
CAY49346
CAY49347
CAY49349
CAY49350
CAY49351
CAY49352
CAY49353
CAY49355
CAY49356
CAY49357
CAY49358
CAY49359
CAY49360
CAY49361
CAY49362
CAY49363
CAY49364
CAY49365
CAY49366
CAY49367
CAY49368
CAY49370
CAY49371
CAY49372
CAY49375
CAY49376
CAY49377
CAY49378
CAY49379
CAY49380
CAY49381
CAY49382
CAY49383
CAY49384
CAY49386
CAY49387
CAY49388
CAY49390
CAY49391
CAY49392
CAY49393
CAY49394
CAY49395
CAY49396
CAY49397
CAY49398
CAY49400
CAY49402
CAY49404
CAY49405
CAY49407
CAY49408
CAY49409
CAY49410
CAY49411
CAY49412
CAY49414
CAY49416
CAY49417
CAY49418
CAY49421
CAY49422
CAY49423
CAY49424
CAY49426
CAY49428
CAY49429
CAY49430
CAY49431
CAY49432
CAY49433
CAY49434
CAY49435
CAY49436
CAY49437
CAY49438
CAY49440
CAY49441
CAY49443
CAY49444
CAY49445
CAY49446
CAY49447
CAY49448
CAY49449
CAY49450
CAY49451
CAY49453
CAY49454
CAY49455
CAY49459
CAY49460
CAY49464
CAY49465
CAY49466
CAY49467
CAY49468
CAY49469
CAY49470
CAY49471
CAY49472
CAY49473
CAY49474
CAY49475
CAY49476
CAY49477
CAY49478
CAY49479
CAY49480
CAY49482
CAY49483
CAY49484
CAY49485
CAY49486
CAY49487
CAY49488
CAY49489
CAY49490
CAY49491
CAY49492
CAY49496
CAY49500
CAY49503
CAY49504
CAY49505
CAY49507
CAY49508
CAY49509
CAY49511
CAY49512
CAY49513
CAY49514
CAY49515
CAY49516
CAY49517
CAY49518
CAY49520
CAY49522
CAY49523
CAY49524
CAY49527
CAY49528
CAY49529
CAY49530
CAY49531
CAY49532
CAY49533
CAY49535
CAY49536
CAY49537
CAY49538
CAY49539
CAY49540
CAY49541
CAY49544
CAY49545
CAY49546
CAY49547
CAY49548
CAY49549
CAY49550
CAY49551
CAY49552
CAY49553
CAY49554
CAY49555
CAY49557
CAY49559
CAY49561
CAY49564
CAY49565
CAY49566
CAY49567
CAY49568
CAY49569
CAY49570
CAY49571
CAY49574
CAY49575
CAY49576
CAY49577
CAY49579
CAY49580
CAY49581
CAY49582
CAY49583
CAY49584
CAY49585
CAY49586
CAY49587
CAY49588
CAY49589
CAY49591
CAY49592
CAY49593
CAY49594
CAY49595
CAY49596
CAY49597
CAY49598
CAY49599
CAY49600
CAY49601
CAY49602
CAY49603
CAY49605
CAY49606
CAY49607
CAY49608
CAY49609
CAY49610
CAY49611
CAY49612
CAY49613
CAY49614
CAY49615
CAY49616
CAY49617
CAY49618
CAY49619
CAY49620
CAY49621
CAY49622
CAY49623
CAY49624
CAY49625
CAY49626
CAY49627
CAY49628
CAY49629
CAY49631
CAY49632
CAY49634
CAY49635
CAY49636
CAY49637
CAY49638
CAY49639
CAY49640
CAY49641
CAY49642
CAY49643
CAY49644
CAY49645
CAY49646
CAY49647
CAY49648
CAY49649
CAY49650
CAY49651
CAY49652
CAY49653
CAY49654
CAY49655
CAY49656
CAY49657
CAY49658
CAY49659
CAY49660
CAY49661
CAY49663
CAY49664
CAY49665
CAY49666
CAY49667
CAY49668
CAY49669
CAY49670
CAY49671
CAY49672
CAY49673
CAY49674
CAY49675
CAY49676
CAY49677
CAY49678
CAY49679
CAY49680
CAY49681
CAY49682
CAY49683
CAY49684
CAY49685
CAY49686
CAY49687
CAY49688
CAY49689
CAY49690
CAY49691
CAY49692
CAY49693
CAY49694
CAY49695
CAY49696
CAY49697
CAY49699
CAY49700
CAY49701
CAY49702
CAY49703
CAY49706
CAY49708
CAY49709
CAY49712
CAY49713
CAY49714
CAY49715
CAY49716
CAY49718
CAY49719
CAY49720
CAY49722
CAY49723
CAY49724
CAY49725
CAY49726
CAY49727
CAY49728
CAY49729
CAY49730
CAY49731
CAY49732
CAY49733
CAY49735
CAY49736
CAY49737
CAY49738
CAY49739
CAY49740
CAY49741
CAY49742
CAY49743
CAY49744
CAY49745
CAY49746
CAY49747
CAY49748
CAY49749
CAY49750
CAY49751
CAY49752
CAY49753
CAY49754
CAY49755
CAY49756
CAY49757
CAY49758
CAY49759
CAY49760
CAY49761
CAY49762
CAY49763
CAY49764
CAY49765
CAY49766
CAY49767
CAY49768
CAY49769
CAY49770
CAY49771
CAY49772
CAY49773
CAY49774
CAY49775
CAY49776
CAY49777
CAY49778
CAY49779
CAY49780
CAY49781
CAY49782
CAY49783
CAY49784
CAY49786
CAY49787
CAY49788
CAY49790
CAY49791
CAY49792
CAY49793
CAY49794
CAY49795
CAY49796
CAY49797
CAY49799
CAY49800
CAY49801
CAY49802
CAY49803
CAY49804
CAY49805
CAY49806
CAY49807
CAY49808
CAY49809
CAY49810
CAY49811
CAY49812
CAY49813
CAY49814
CAY49815
CAY49816
CAY49817
CAY49818
CAY49819
CAY49820
CAY49821
CAY49822
CAY49824
CAY49828
CAY49830
CAY49831
CAY49833
CAY49835
CAY49839
CAY49841
CAY49842
CAY49844
CAY49846
CAY49848
CAY49849
CAY49850
CAY49852
CAY49854
CAY49856
CAY49858
CAY49860
CAY49862
CAY49863
CAY49864
CAY49865
CAY49866
CAY49867
CAY49868
CAY49869
CAY49872
CAY49873
CAY49874
CAY49875
CAY49876
CAY49877
CAY49879
CAY49880
CAY49881
CAY49883
CAY49885
CAY49887
CAY49889
CAY49890
CAY49891
CAY49893
CAY49896
CAY49898
CAY49900
CAY49902
CAY49904
CAY49905
CAY49907
CAY49909
CAY49910
CAY49912
CAY49918
CAY49921
CAY49924
CAY49925
CAY49926
CAY49927
CAY49928
CAY49929
CAY49930
CAY49932
CAY49934
CAY49935
CAY49936
CAY49937
CAY49938
CAY49939
CAY49940
CAY49941
CAY49942
CAY49943
CAY49944
CAY49945
CAY49947
CAY49949
CAY49951
CAY49952
CAY49954
CAY49957
CAY49958
CAY49961
CAY49963
CAY49964
CAY49966
CAY49968
CAY49970
CAY49973
CAY49975
CAY49978
CAY49979
CAY49980
CAY49981
CAY49982
CAY49984
CAY49985
CAY49987
CAY49989
CAY49992
CAY49997
CAY49998
CAY50000
CAY50001
CAY50002
CAY50003
CAY50005
CAY50007
CAY50009
CAY50011
CAY50012
CAY50013
CAY50014
CAY50015
CAY50017
CAY50018
CAY50019
CAY50020
CAY50021
CAY50022
CAY50024
CAY50025
CAY50026
CAY50027
CAY50028
CAY50029
CAY50031
CAY50033
CAY50035
CAY50037
CAY50039
CAY50040
CAY50042
CAY50046
CAY50047
CAY50049
CAY50050
CAY50052
CAY50053
CAY50057
CAY50060
CAY50063
CAY50064
CAY50070
CAY50072
CAY50073
CAY50075
CAY50076
CAY50078
CAY50079
CAY50081
CAY50083
CAY50085
CAY50087
CAY50089
CAY50091
CAY50092
CAY50093
CAY50094
CAY50095
CAY50101
CAY50103
CAY50106
CAY50110
CAY50111
CAY50116
CAY50122
CAY50125
CAY50129
CAY50131
CAY50133
CAY50155
CAY50157
CAY50159
CAY50163
CAY50164
CAY50166
CAY50168
CAY50170
CAY50172
CAY50174
CAY50175
CAY50177
CAY50179
CAY50180
CAY50182
CAY50183
CAY50185
CAY50187
CAY50188
CAY50190
CAY50193
CAY50195
CAY50197
CAY50199
CAY50200
CAY50201
CAY50202
CAY50203
CAY50204
CAY50205
CAY50207
CAY50208
CAY50209
CAY50213
CAY50220
CAY50224
CAY50225
CAY50226
CAY50228
CAY50229
CAY50231
CAY50235
CAY50236
CAY50242
CAY50244
CAY50246
CAY50248
CAY50250
CAY50253
CAY50255
CAY50257
CAY50259
CAY50261
CAY50263
CAY50265
CAY50267
CAY50268
CAY50270
CAY50272
CAY50273
CAY50275
CAY50276
CAY50277
CAY50279
CAY50280
CAY50282
CAY50284
CAY50286
CAY50289
CAY50291
CAY50292
CAY50294
CAY50297
CAY50301
CAY50303
CAY50306
CAY50318
CAY50320
CAY50321
CAY50323
CAY50325
CAY50326
CAY50328
CAY50332
CAY50334
CAY50335
CAY50336
CAY50337
CAY50338
CAY50339
CAY50340
CAY50341
CAY50342
CAY50344
CAY50345
CAY50346
CAY50347
CAY50348
CAY50349
CAY50350
CAY50351
CAY50353
CAY50354
CAY50361
CAY50363
CAY50367
CAY50369
CAY50370
CAY50372
CAY50374
CAY50377
CAY50378
CAY50380
CAY50381
CAY50382
CAY50384
CAY50385
CAY50386
CAY50388
CAY50389
CAY50390
CAY50392
CAY50394
CAY50395
CAY50397
CAY50398
CAY50400
CAY50402
CAY50404
CAY50405
CAY50407
CAY50408
CAY50409
CAY50412
CAY50413
CAY50414
CAY50416
CAY50418
CAY50420
CAY50421
CAY50423
CAY50424
CAY50426
CAY50427
CAY50429
CAY50431
CAY50433
CAY50435
CAY50436
CAY50438
CAY50440
CAY50442
CAY50443
CAY50445
CAY50448
CAY50449
CAY50450
CAY50451
CAY50452
CAY50453
CAY50454
CAY50455
CAY50456
CAY50457
CAY50458
CAY50459
CAY50460
CAY50462
CAY50464
CAY50466
CAY50468
CAY50470
CAY50471
CAY50473
CAY50474
CAY50476
CAY50477
CAY50478
CAY50481
CAY50483
CAY50485
CAY50487
CAY50488
CAY50490
CAY50492
CAY50493
CAY50495
CAY50497
CAY50498
CAY50500
CAY50501
CAY50505
CAY50507
CAY50511
CAY50513
CAY50514
CAY50516
CAY50518
CAY50520
CAY50521
CAY50523
CAY50524
CAY50527
CAY50529
CAY50531
CAY50533
CAY50535
CAY50537
CAY50546
CAY50548
CAY50550
CAY50552
CAY50554
CAY50556
CAY50558
CAY50560
CAY50561
CAY50563
CAY50565
CAY50567
CAY50569
CAY50571
CAY50572
CAY50574
CAY50577
CAY50579
CAY50583
CAY50585
CAY50587
CAY50589
CAY50595
CAY50599
CAY50601
CAY50603
CAY50605
CAY50607
CAY50608
CAY50609
CAY50611
CAY50614
CAY50615
CAY50617
CAY50618
CAY50620
CAY50622
CAY50623
CAY50626
CAY50629
CAY50641
CAY50645
CAY50647
CAY50651
CAY50652
CAY50653
CAY50654
CAY50658
CAY50659
CAY50662
CAY50663
CAY50665
CAY50667
CAY50669
CAY50672
CAY50675
CAY50676
CAY50677
CAY50678
CAY50680
CAY50684
CAY50685
CAY50687
CAY50689
CAY50691
CAY50692
CAY50694
CAY50696
CAY50699
CAY50704
CAY50707
CAY50709
CAY50712
CAY50714
CAY50716
CAY50720
CAY50722
CAY50723
CAY50725
CAY50727
CAY50731
CAY50733
CAY50734
CAY50735
CAY50738
CAY50740
CAY50744
CAY50745
CAY50747
CAY50749
CAY50750
CAY50752
CAY50754
CAY50756
CAY50758
CAY50759
CAY50760
CAY50762
CAY50763
CAY50764
CAY50766
CAY50768
CAY50769
CAY50771
CAY50773
CAY50775
CAY50777
CAY50778
CAY50780
CAY50781
CAY50783
CAY50785
CAY50787
CAY50788
CAY50790
CAY50791
CAY50793
CAY50796
CAY50797
CAY50799
CAY50801
CAY50803
CAY50805
CAY50807
CAY50809
CAY50811
CAY50813
CAY50815
CAY50817
CAY50819
CAY50820
CAY50822
CAY50825
CAY50826
CAY50828
CAY50830
CAY50832
CAY50834
CAY50836
CAY50837
CAY50838
CAY50842
CAY50844
CAY50846
CAY50847
CAY50849
CAY50850
CAY50852
CAY50853
CAY50854
CAY50856
CAY50858
CAY50860
CAY50862
CAY50863
CAY50869
CAY50872
CAY50876
CAY50877
CAY50880
CAY50883
CAY50885
CAY50893
CAY50894
CAY50896
CAY50898
CAY50900
CAY50902
CAY50906
CAY50910
CAY50912
CAY50914
CAY50916
CAY50917
CAY50918
CAY50919
CAY50920
CAY50921
CAY50924
CAY50926
CAY50928
CAY50930
CAY50932
CAY50934
CAY50936
CAY50938
CAY50939
CAY50943
CAY50947
CAY50948
CAY50950
CAY50951
CAY50953
CAY50955
CAY50956
CAY50958
CAY50960
CAY50961
CAY50963
CAY50968
CAY50969
CAY50971
CAY50975
CAY50977
CAY50979
CAY50981
CAY50983
CAY50984
CAY50986
CAY50987
CAY50988
CAY50990
CAY50997
CAY51001
CAY51003
CAY51005
CAY51006
CAY51008
CAY51013
CAY51016
CAY51020
CAY51021
CAY51025
CAY51027
CAY51029
CAY51031
CAY51032
CAY51034
CAY51038
CAY51039
CAY51041
CAY51043
CAY51045
CAY51047
CAY51049
CAY51051
CAY51053
CAY51054
CAY51056
CAY51059
CAY51062
CAY51064
CAY51066
CAY51067
CAY51079
CAY51083
CAY51084
CAY51100
CAY51102
CAY51104
CAY51105
CAY51117
CAY51119
CAY51120
CAY51125
CAY51126
CAY51129
CAY51131
CAY51133
CAY51143
CAY51144
CAY51146
CAY51147
CAY51148
CAY51149
CAY51150
CAY51155
CAY51157
CAY51159
CAY51163
CAY51165
CAY51168
CAY51170
CAY51172
CAY51173
CAY51175
CAY51179
CAY51180
CAY51181
CAY51182
CAY51183
CAY51184
CAY51186
CAY51187
CAY51188
CAY51189
CAY51191
CAY51192
CAY51194
CAY51197
CAY51198
CAY51200
CAY51202
CAY51204
CAY51206
CAY51211
CAY51213
CAY51216
CAY51218
CAY51220
CAY51221
CAY51222
CAY51224
CAY51226
CAY51228
CAY51229
CAY51230
CAY51232
CAY51233
CAY51234
CAY51235
CAY51238
CAY51239
CAY51241
CAY51245
CAY51247
CAY51248
CAY51250
CAY51252
CAY51253
CAY51254
CAY51256
CAY51257
CAY51259
CAY51261
CAY51264
CAY51266
CAY51267
CAY51268
CAY51269
CAY51273
CAY51275
CAY51278
CAY51279
CAY51282
CAY51284
CAY51286
CAY51288
CAY51290
CAY51292
CAY51296
CAY51301
CAY51303
CAY51306
CAY51307
CAY51309
CAY51311
CAY51312
CAY51315
CAY51317
CAY51318
CAY51319
CAY51321
CAY51323
CAY51327
CAY51329
CAY51331
CAY51332
CAY51334
CAY51336
CAY51341
CAY51342
CAY51343
CAY51345
CAY51346
CAY51356
CAY51358
CAY51359
CAY51361
CAY51363
CAY51365
CAY51367
CAY51369
CAY51374
CAY51376
CAY51378
CAY51379
CAY51381
CAY51383
CAY51385
CAY51386
CAY51388
CAY51391
CAY51397
CAY51400
CAY51402
CAY51403
CAY51407
CAY51409
CAY51410
CAY51412
CAY51416
CAY51418
CAY51419
CAY51421
CAY51422
CAY51425
CAY51426
CAY51428
CAY51430
CAY51431
CAY51432
CAY51434
CAY51436
CAY51438
CAY51440
CAY51441
CAY51442
CAY51444
CAY51445
CAY51446
CAY51448
CAY51450
CAY51452
CAY51453
CAY51454
CAY51457
CAY51458
CAY51459
CAY51460
CAY51461
CAY51462
CAY51464
CAY51465
CAY51471
CAY51475
CAY51477
CAY51482
CAY51483
CAY51484
CAY51485
CAY51486
CAY51487
CAY51488
CAY51489
CAY51490
CAY51491
CAY51492
CAY51493
CAY51494
CAY51496
CAY51501
CAY51512
CAY51514
CAY51516
CAY51517
CAY51518
CAY51519
CAY51521
CAY51522
CAY51524
CAY51528
CAY51533
CAY51534
CAY51537
CAY51538
CAY51540
CAY51543
CAY51545
CAY51548
CAY51549
CAY51553
CAY51556
CAY51558
CAY51559
CAY51561
CAY51562
CAY51563
CAY51565
CAY51574
CAY51575
CAY51581
CAY51585
CAY51586
CAY51588
CAY51589
CAY51591
CAY51593
CAY51596
CAY51599
CAY51600
CAY51603
CAY51604
CAY51605
CAY51610
CAY51612
CAY51613
CAY51615
CAY51616
CAY51618
CAY51620
CAY51621
CAY51623
CAY51624
CAY51626
CAY51627
CAY51629
CAY51631
CAY51632
CAY51634
CAY51636
CAY51637
CAY51640
CAY51642
CAY51643
CAY51645
CAY51649
CAY51650
CAY51651
CAY51653
CAY51655
CAY51657
CAY51658
CAY51659
CAY51660
CAY51662
CAY51663
CAY51665
CAY51667
CAY51669
CAY51671
CAY51672
CAY51674
CAY51676
CAY51677
CAY51679
CAY51682
CAY51684
CAY51687
CAY51688
CAY51691
CAY51693
CAY51695
CAY51697
CAY51699
CAY51701
CAY51704
CAY51709
CAY51711
CAY51720
CAY51721
CAY51722
CAY51724
CAY51726
CAY51728
CAY51729
CAY51733
CAY51735
CAY51736
CAY51738
CAY51739
CAY51742
CAY51744
CAY51745
CAY51746
CAY51748
CAY51750
CAY51754
CAY51756
CAY51759
CAY51761
CAY51762
CAY51764
CAY51765
CAY51768
CAY51769
CAY51771
CAY51772
CAY51774
CAY51775
CAY51776
CAY51778
CAY51785
CAY51787
CAY51789
CAY51794
CAY51798
CAY51800
CAY51802
CAY51804
CAY51806
CAY51808
CAY51813
CAY51816
CAY51825
CAY51828
CAY51830
CAY51832
CAY51833
CAY51837
CAY51839
CAY51840
CAY51842
CAY51844
CAY51846
CAY51847
CAY51848
CAY51853
CAY51854
CAY51856
CAY51857
CAY51860
CAY51864
CAY51866
CAY51867
CAY51869
CAY51870
CAY51871
CAY51873
CAY51874
CAY51878
CAY51880
CAY51882
CAY51883
CAY51886
CAY51888
CAY51889
CAY51891
CAY51893
CAY51895
CAY51897
CAY51904
CAY51905
CAY51907
CAY51911
CAY51913
CAY51914
CAY51915
CAY51917
CAY51918
CAY51921
CAY51923
CAY51929
CAY51931
CAY51933
CAY51934
CAY51935
CAY51937
CAY51943
CAY51945
CAY51946
CAY51948
CAY51953
CAY51955
CAY51957
CAY51958
CAY51963
CAY51964
CAY51966
CAY51968
CAY51983
CAY51985
CAY51991
CAY51993
CAY51994
CAY51996
CAY51998
CAY52000
CAY52002
CAY52003
CAY52004
CAY52006
CAY52007
CAY52009
CAY52011
CAY52016
CAY52018
CAY52026
CAY52030
CAY52031
CAY52032
CAY52033
CAY52034
CAY52037
CAY52038
CAY52041
CAY52043
CAY52048
CAY52050
CAY52051
CAY52054
CAY52066
CAY52067
CAY52068
CAY52072
CAY52077
CAY52081
CAY52083
CAY52084
CAY52086
CAY52088
CAY52089
CAY52090
CAY52092
CAY52093
CAY52095
CAY52097
CAY52098
CAY52100
CAY52103
CAY52104
CAY52105
CAY52106
CAY52108
CAY52109
CAY52111
CAY52113
CAY52114
CAY52115
CAY52116
CAY52118
CAY52119
CAY52120
CAY52122
CAY52124
CAY52126
CAY52128
CAY52129
CAY52130
CAY52131
CAY52133
CAY52134
CAY52136
CAY52138
CAY52139
CAY52141
CAY52142
CAY52144
CAY52146
CAY52148
CAY52149
CAY52151
CAY52152
CAY52155
CAY52157
CAY52158
CAY52160
CAY52161
CAY52164
CAY52165
CAY52181
CAY52183
CAY52185
CAY52187
CAY52188
CAY52190
CAY52192
CAY52193
CAY52194
CAY52196
CAY52197
CAY52198
CAY52199
CAY52205
CAY52206
CAY52209
CAY52211
CAY52212
CAY52214
CAY52216
CAY52219
CAY52223
CAY52226
CAY52227
CAY52233
CAY52238
CAY52239
CAY52241
CAY52243
CAY52246
CAY52249
CAY52250
CAY52252
CAY52259
CAY52266
CAY52267
CAY52269
CAY52277
CAY52279
CAY52281
CAY52282
CAY52284
CAY52285
CAY52287
CAY52292
CAY52293
CAY52295
CAY52302
CAY52303
CAY52307
CAY52308
CAY52310
CAY52314
CAY52316
CAY52319
CAY52322
CAY52324
CAY52325
CAY52327
CAY52328
CAY52338
CAY52340
CAY52342
CAY52354
CAY52364
CAY52365
CAY52379
CAY52381
CAY52387
CAY52388
CAY52390
CAY52393
CAY52394
CAY52395
CAY52396
CAY52398
CAY52399
CAY52404
CAY52406
CAY52408
CAY52409
CAY52410
CAY52412
CAY52413
CAY52416
CAY52417
CAY52419
CAY52420
CAY52421
CAY52422
CAY52424
CAY52425
CAY52427
CAY52428
CAY52430
CAY52431
CAY52432
CAY52434
CAY52435
CAY52438
CAY52440
CAY52442
CAY52443
CAY52445
CAY52446
CAY52447
CAY52448
CAY52449
CAY52450
CAY52452
CAY52453
CAY52457
CAY52458
CAY52459
CAY52463
CAY52464
CAY52467
CAY52469
CAY52471
CAY52473
CAY52478
CAY52479
CAY52481
CAY52483
CAY52484
CAY52487
CAY52488
CAY52490
CAY52491
CAY52493
CAY52494
CAY52498
CAY52499
CAY52500
CAY52501
CAY52503
CAY52504
CAY52505
CAY52506
CAY52511
CAY52512
CAY52513
CAY52515
CAY52517
CAY52518
CAY52520
CAY52521
CAY52525
CAY52526
CAY52528
CAY52530
CAY52532
CAY52534
CAY52535
CAY52536
CAY52538
CAY52540
CAY52542
CAY52543
CAY52545
CAY52546
CAY52549
CAY52551
CAY52552
CAY52554
CAY52556
CAY52560
CAY52561
CAY52563
CAY52565
CAY52568
CAY52569
CAY52570
CAY52571
CAY52573
CAY52578
CAY52581
CAY52584
CAY52587
CAY52588
CAY52592
CAY52594
CAY52596
CAY52597
CAY52600
CAY52602
CAY52603
CAY52604
CAY52608
CAY52610
CAY52612
CAY52614
CAY52616
CAY52618
CAY52620
CAY52622
CAY52623
CAY52625
CAY52627
CAY52630
CAY52632
CAY52633
CAY52636
CAY52638
CAY52642
CAY52645
CAY52648
CAY52650
CAY52651
CAY52653
CAY52655
CAY52656
CAY52659
CAY52666
CAY52668
CAY52669
CAY52672
CAY52674
CAY52682
CAY52684
CAY52685
CAY52687
CAY52689
CAY52691
CAY52692
CAY52693
CAY52694
CAY52696
CAY52697
CAY52698
CAY52701
CAY52702
CAY52704
CAY52705
CAY52707
CAY52708
CAY52709
CAY52710
CAY52713
CAY52716
CAY52790
CAY52791
CAY52796
CAY52798
CAY52799
CAY52802
CAY52803
CAY52805
CAY52806
CAY52807
CAY52809
CAY52810
CAY52812
CAY52820
CAY52824
CAY52825
CAY52828
CAY52829
CAY52831
CAY52833
CAY52835
CAY52836
CAY52838
CAY52840
CAY52841
CAY52842
CAY52844
CAY52850
CAY52855
CAY52857
CAY52859
CAY52862
CAY52866
CAY52868
CAY52870
CAY52875
CAY52876
CAY52878
CAY52879
CAY52880
CAY52885
CAY52890
CAY52892
CAY52893
CAY52895
CAY52897
CAY52898
CAY52900
CAY52902
CAY52905
CAY52907
CAY52911
CAY52913
CAY52915
CAY52917
CAY52918
CAY52920
CAY52924
CAY52926
CAY52927
CAY52929
CAY52930
CAY52932
CAY52934
CAY52935
CAY52936
CAY52937
CAY52939
CAY52940
CAY52942
CAY52943
CAY52945
CAY52946
CAY52951
CAY52953
CAY52954
CAY52956
CAY52961
CAY52969
CAY52972
CAY52974
CAY52975
CAY52977
CAY52979
CAY52981
CAY52983
CAY52984
CAY52986
CAY52987
CAY52988
CAY52989
CAY52991
CAY52993
CAY52995
CAY52997
CAY52999
CAY53001
CAY53003
CAY53005
CAY53006
CAY53007
CAY53009
CAY53012
CAY53014
CAY53016
CAY53025
CAY53027
CAY53030
CAY53033
CAY53034
CAY53036
CAY53037
CAY53039
CAY53041
CAY53042
CAY53044
CAY53047
CAY53050
CAY53051
CAY53057
CAY53061
CAY53062
CAY53063
CAY53065
CAY53066
CAY53068
CAY53069
CAY53070
CAY53072
CAY53074
CAY53079
CAY53080
CAY53082
CAY53084
CAY53089
CAY53090
CAY53092
CAY53093
CAY53095
CAY53097
CAY53098
CAY53100
CAY53102
CAY53103
CAY53105
CAY53107
CAY53108
CAY53110
CAY53112
CAY53114
CAY53115
CAY53116
CAY53118
CAY53127
CAY53128
CAY53130
CAY53137
CAY53140
CAY53143
CAY53145
CAY53146
CAY53148
CAY53150
CAY53152
CAY53154
CAY53156
CAY53157
CAY53163
CAY53165
CAY53170
CAY53176
CAY53178
CAY53179
CAY53181
CAY53183
CAY53185
CAY53186
CAY53187
CAY53188
CAY53196
CAY53198
CAY53199
CAY53202
CAY53205
CAY53207
CAY53209
CAY53210
CAY53214
CAY53215
CAY53217
CAY53219
CAY53222
CAY53224
CAY53226
CAY53227
CAY53228
CAY53229
CAY53230
CAY53235
CAY53237
CAY53241
CAY53243
CAY53248
CAY53249
CAY53251
CAY53252
CAY53255
CAY53257
CAY53259
CAY53260
CAY53262
CAY53264
CAY53265
CAY53268
CAY53269
CAY53272
CAY53281
CAY53282
CAY53284
CAY53286
CAY53290
CAY53292
CAY53293
CAY53295
CAY53298
CAY53302
CAY53304
CAY53310
CAY53312
CAY53313
CAY53315
CAY53317
CAY53318
CAY53320
CAY53321
CAY53324
CAY53329
CAY53330
CAY53332
CAY53334
CAY53335
CAY53338
CAY53340
CAY53341
CAY53343
CAY53344
CAY53346
CAY53348
CAY53349
CAY53351
CAY53353
CAY53355
CAY53358
CAY53360
CAY53362
CAY53363
CAY53367
CAY53372
CAY53374
CAY53375
CAY53377
CAY53379
CAY53381
CAY53383
CAY53384
CAY53386
CAY53389
CAY53393
CAY53395
CAY53396
CAY53397
CAY53399
CAY53400
CAY53401
CAY53403
CAY53405
CAY53406
CAY53408
CAY53410
CAY53412
CAY53415
CAY53418
CAY53420
CAY53422
CAY53430
CAY53431
CAY53433
CAY53435
CAY53439
CAY53440
CAY53447
CAY53451
CAY53453
CAY53454
CAY53456
CAY53459
CAY53460
CAY53461
CAY53463
CAY53465
CAY53467
CAY53469
CAY53474
CAY53476
CAY53478
CAY53481
CAY53485
CAY53487
CAY53489
CAY53490
CAY53492
CAY53494
CAY53495
CAY53497
CAY53502
CAY53511
CAY53517
CAY53519
CAY53522
CAY53528
CAY53529
CAY53531
CAY53536
CAY53537
CAY53539
CAY53541
CAY53542
CAY53544
CAY53545
CAY53547
CAY53548
CAY53550
CAY53553
CAY53554
CAY53556
CAY53558
CAY53559
CAY53561
CAY53563
CAY53564
CAY53566
CAY53567
CAY53569
CAY53570
CAY53572
CAY53575
CAY53577
CAY53579
CAY53581
CAY53582
CAY53584
CAY53588
CAY53590
CAY53591
CAY53594
CAY53599
CAY53601
CAY53603
CAY53607
CAY53608
CAY53610
CAY53612
CAY53614
CAY53616
CAY53617
CAY53619
CAY53624
CAY53627
CAY53630
CAY53631
CAY53636
CAY53637
CAY53638
CAY53640
CAY53642
CAY53648
CAY53649
CAY53651
CAY53654
CAY53656
CAY53658
CAY53659
CAY53661
CAY53664
CAY53667
CAY53668
CAY53670
CAY53671
CAY53673
CAY53674
CAY53675
CAY53677
CAY53678
CAY53679
CAY53683
CAY53685
CAY53687
CAY53688
CAY53690
CAY53692
CAY53693
CAY53695
CAY53696
CAY53698
CAY53700
CAY53702
CAY53703
CAY53705
CAY53707
CAY53709
CAY53711
CAY53713
CAY53715
CAY53716
CAY53718
CAY53735
CAY53738
CAY53740
CAY53745
CAY53747
CAY53748
CAY53750
