PFLU_0177,CRM12578.1,100.000,53,0,0,1,53,1,53,6.14e-26,99.8,100.00
PFLU_0177,WP_236295294.1,100.000,53,0,0,1,53,109,161,1.79e-25,101,100.00
PFLU_0177,SAM34972.1,98.113,53,1,0,1,53,1,53,1.80e-25,98.6,98.11
PFLU_0177,WP_154743410.1,100.000,53,0,0,1,53,109,161,2.32e-25,101,100.00
PFLU_0177,WP_314561003.1,100.000,53,0,0,1,53,109,161,2.40e-25,101,100.00
PFLU_0177,WP_158683882.1,100.000,53,0,0,1,53,109,161,2.43e-25,101,100.00
PFLU_0177,WP_012721615.1,100.000,53,0,0,1,53,109,161,2.48e-25,101,100.00
PFLU_0177,WP_141687566.1,100.000,53,0,0,1,53,109,161,2.65e-25,101,100.00
PFLU_0177,WP_157986812.1,100.000,53,0,0,1,53,109,161,2.98e-25,101,100.00
PFLU_0177,WP_133257337.1,98.113,53,1,0,1,53,109,161,5.37e-25,100,98.11
PFLU_0177,CRM97109.1,96.226,53,2,0,1,53,1,53,5.40e-25,97.4,98.11
PFLU_0177,WP_148050883.1,98.113,53,1,0,1,53,109,161,6.33e-25,100,98.11
PFLU_0177,WP_139113376.1,98.113,53,1,0,1,53,109,161,6.40e-25,100,98.11
PFLU_0177,WP_141690818.1,98.113,53,1,0,1,53,109,161,7.13e-25,100,98.11
PFLU_0177,WP_256823201.1,96.226,53,2,0,1,53,109,161,9.78e-25,99.8,98.11
PFLU_0177,CRM25466.1,96.226,53,2,0,1,53,1,53,1.18e-24,96.3,98.11
PFLU_0177,WP_262126451.1,96.226,53,2,0,1,53,109,161,1.26e-24,99.8,96.23
PFLU_0177,WP_198707742.1,94.340,53,3,0,1,53,1,53,1.39e-24,96.3,98.11
PFLU_0177,WP_180922716.1,96.226,53,2,0,1,53,1,53,1.45e-24,96.3,98.11
PFLU_0177,WP_301556680.1,96.226,53,2,0,1,53,109,161,1.46e-24,99.4,96.23
PFLU_0177,WP_157806804.1,96.226,53,2,0,1,53,109,161,1.51e-24,99.4,98.11
PFLU_0177,AZE76007.1,96.226,53,2,0,1,53,1,53,2.63e-24,95.5,96.23
PFLU_0177,WP_003175981.1,100.000,51,0,0,3,53,2,52,2.96e-24,95.5,100.00
PFLU_0177,WP_177042271.1,96.226,53,2,0,1,53,109,161,3.65e-24,98.6,98.11
PFLU_0177,WP_127880555.1,96.226,53,2,0,1,53,109,161,4.69e-24,98.2,96.23
PFLU_0177,WP_216090564.1,98.039,51,1,0,3,53,2,52,5.36e-24,94.7,100.00
PFLU_0177,AZE98180.1,98.039,51,1,0,3,53,2,52,6.90e-24,94.4,98.04
PFLU_0177,SDO59442.1,98.039,51,1,0,3,53,2,52,1.00e-23,94.0,100.00
PFLU_0177,WP_185013514.1,98.039,51,1,0,3,53,2,52,1.00e-23,94.0,100.00
PFLU_0177,AJP49878.1,98.039,51,1,0,3,53,2,52,1.06e-23,94.0,100.00
PFLU_0177,MBS7841824.1,96.226,53,2,0,1,53,109,161,1.17e-23,97.1,96.23
PFLU_0177,MBK3508479.1,100.000,51,0,0,3,53,111,161,1.20e-23,97.1,100.00
PFLU_0177,WP_138761245.1,96.226,53,2,0,1,53,109,161,1.25e-23,97.1,98.11
PFLU_0177,AKS07083.1,98.039,51,1,0,3,53,47,97,1.69e-23,94.7,100.00
PFLU_0177,MBE8590107.1,100.000,51,0,0,3,53,111,161,1.71e-23,96.7,100.00
PFLU_0177,WP_247290884.1,96.078,51,2,0,3,53,2,52,2.09e-23,93.2,100.00
PFLU_0177,CRM13473.1,96.078,51,2,0,3,53,2,52,2.82e-23,92.8,98.04
PFLU_0177,SDQ70129.1,100.000,50,0,0,4,53,3,52,2.82e-23,92.8,100.00
PFLU_0177,WP_164487905.1,96.078,51,2,0,3,53,2,52,3.14e-23,92.8,98.04
PFLU_0177,WP_170930078.1,96.078,51,2,0,3,53,2,52,3.25e-23,92.8,98.04
PFLU_0177,PFG22063.1,96.078,51,2,0,3,53,2,52,3.51e-23,92.8,96.08
PFLU_0177,SED91118.1,96.078,51,2,0,3,53,2,52,3.92e-23,92.4,98.04
PFLU_0177,WP_242461017.1,96.078,51,2,0,3,53,2,52,3.92e-23,92.4,98.04
PFLU_0177,WEL45497.1,96.078,51,2,0,3,53,2,52,4.23e-23,92.4,98.04
PFLU_0177,WP_190241536.1,96.078,51,2,0,3,53,2,52,4.77e-23,92.4,98.04
PFLU_0177,SBW82821.1,98.000,50,1,0,4,53,3,52,5.04e-23,92.4,100.00
PFLU_0177,WP_164486777.1,96.078,51,2,0,3,53,2,52,5.88e-23,92.0,98.04
PFLU_0177,BCQ71093.1,94.118,51,3,0,3,53,2,52,7.65e-23,91.7,96.08
PFLU_0177,MBC3962315.1,96.078,51,2,0,3,53,111,161,8.12e-23,95.1,100.00
PFLU_0177,EFQ65927.1,94.118,51,3,0,3,53,2,52,1.10e-22,91.3,96.08
PFLU_0177,RMP70003.1,98.000,50,1,0,4,53,3,52,1.48e-22,91.3,100.00
PFLU_0177,MBD8098438.1,96.078,51,2,0,3,53,111,161,1.54e-22,94.4,98.04
PFLU_0177,WP_162835972.1,96.000,50,2,0,4,53,3,52,3.09e-22,90.1,98.00
PFLU_0177,WP_170206630.1,92.157,51,4,0,3,53,2,52,3.89e-22,90.1,96.08
PFLU_0177,WP_285410686.1,96.000,50,2,0,4,53,3,52,4.69e-22,89.7,98.00
PFLU_0177,WP_177015234.1,96.078,51,2,0,3,53,2,52,4.85e-22,89.7,98.04
PFLU_0177,WP_231666111.1,84.906,53,8,0,1,53,1,53,7.29e-22,89.4,94.34
PFLU_0177,WP_191623565.1,90.196,51,5,0,3,53,2,52,1.09e-21,89.0,94.12
PFLU_0177,CRM10968.1,95.918,49,2,0,4,52,3,51,3.13e-21,87.8,97.96
PFLU_0177,WP_256382173.1,83.019,53,9,0,1,53,110,162,4.30e-19,85.5,90.57
PFLU_0177,WP_170234337.1,80.000,50,10,0,4,53,8,57,2.72e-18,80.5,88.00
PFLU_0177,WP_170234318.1,78.000,50,11,0,4,53,8,57,4.51e-18,80.1,86.00
PFLU_0177,WP_170234308.1,78.000,50,11,0,4,53,8,57,8.44e-18,79.3,88.00
PFLU_0177,WP_211354871.1,78.000,50,11,0,4,53,14,63,1.05e-17,79.3,88.00
PFLU_0177,WP_259498331.1,73.585,53,14,0,1,53,1,53,2.15e-17,78.2,81.13
PFLU_0177,WP_175534888.1,75.472,53,13,0,1,53,1,53,5.98e-17,77.0,83.02
PFLU_0177,WP_177031699.1,82.000,50,9,0,3,52,2,51,6.67e-17,77.0,90.00
PFLU_0177,WP_253117652.1,78.000,50,11,0,4,53,5,54,9.00e-17,76.6,88.00
PFLU_0177,WP_231656351.1,75.472,53,13,0,1,53,1,53,1.39e-16,76.3,84.91
PFLU_0177,WP_019693669.1,74.510,51,13,0,3,53,2,52,2.21e-16,75.5,82.35
PFLU_0177,WP_312600831.1,74.000,50,13,0,1,50,1,50,2.84e-16,75.1,86.00
PFLU_0177,WP_167353674.1,74.510,51,13,0,3,53,2,52,2.90e-16,75.1,80.39
PFLU_0177,WP_198790450.1,75.472,53,13,0,1,53,1,53,3.43e-16,75.1,84.91
PFLU_0177,WP_177327627.1,76.923,52,12,0,1,52,1,52,3.62e-16,75.1,84.62
PFLU_0177,WP_288375742.1,76.471,51,12,0,3,53,2,52,3.91e-16,75.1,84.31
PFLU_0177,WP_305651171.1,76.471,51,11,1,3,53,5,54,5.10e-16,74.7,86.27
PFLU_0177,WP_226456666.1,75.472,53,13,0,1,53,1,53,6.01e-16,74.3,84.91
PFLU_0177,WP_164487841.1,69.811,53,16,0,1,53,1,53,6.93e-16,74.3,79.25
PFLU_0177,RMO10454.1,78.000,50,11,0,4,53,3,52,6.99e-16,74.3,82.00
PFLU_0177,WP_167654143.1,74.000,50,13,0,1,50,1,50,7.89e-16,74.3,84.00
PFLU_0177,WP_201193475.1,76.923,52,12,0,1,52,1,52,8.17e-16,73.9,84.62
PFLU_0177,WP_177144616.1,73.077,52,14,0,1,52,1,52,9.32e-16,73.9,80.77
PFLU_0177,WP_282370347.1,77.551,49,11,0,5,53,4,52,1.06e-15,73.9,83.67
PFLU_0177,PUB31199.1,69.811,53,16,0,1,53,1,53,1.23e-15,73.6,84.91
PFLU_0177,WP_221601713.1,76.000,50,12,0,4,53,3,52,1.32e-15,73.6,80.00
PFLU_0177,WP_232201184.1,71.698,53,15,0,1,53,1,53,1.49e-15,73.6,81.13
PFLU_0177,WP_164488088.1,73.077,52,14,0,2,53,4,55,1.71e-15,73.6,78.85
PFLU_0177,WP_144570235.1,77.551,49,11,0,4,52,8,56,1.71e-15,73.6,87.76
PFLU_0177,MBI8474427.1,78.431,51,10,1,3,53,5,54,1.88e-15,73.2,90.20
PFLU_0177,WP_212624573.1,74.510,51,13,0,3,53,2,52,2.03e-15,73.2,82.35
PFLU_0177,WP_217851524.1,71.698,53,15,0,1,53,1,53,2.08e-15,73.2,83.02
PFLU_0177,WP_258714890.1,72.549,51,14,0,3,53,2,52,2.27e-15,73.2,78.43
PFLU_0177,SDA76946.1,69.811,53,16,0,1,53,1,53,2.27e-15,73.2,81.13
PFLU_0177,WP_286949096.1,74.510,51,13,0,3,53,5,55,2.33e-15,73.2,82.35
PFLU_0177,WP_172833784.1,76.000,50,12,0,4,53,3,52,2.42e-15,72.8,80.00
PFLU_0177,WP_179027096.1,71.698,53,15,0,1,53,1,53,2.79e-15,72.8,79.25
PFLU_0177,MBX9756958.1,77.083,48,11,0,3,50,5,52,2.86e-15,72.8,83.33
PFLU_0177,SDL15286.1,74.510,51,13,0,3,53,2,52,3.01e-15,72.8,80.39
PFLU_0177,GLH47085.1,74.000,50,13,0,4,53,3,52,3.33e-15,72.4,88.00
PFLU_0177,SDH18094.1,71.698,53,15,0,1,53,1,53,3.52e-15,72.4,83.02


