Library	Sample	Pacbio_assembly	Illumina_R1	Illumina_R2	Illumina_unpaired
L34837	tss_f6		/seq/databases/genomic_sources/SBW25_pacbio/Illumina/QC/tss_f6_R1_trimmed_mergedlanes.fastq.gz	/seq/databases/genomic_sources/SBW25_pacbio/Illumina/QC/tss_f6_R2_trimmed_mergedlanes.fastq.gz	/seq/databases/genomic_sources/SBW25_pacbio/Illumina/QC/tss_f6_unpaired_mergedlanes.fastq.gz
L34838	tssf6_20Ccolony	/fast/L34838/trycycler/cluster_001/7_final_consensus.fasta	/seq/databases/genomic_sources/SBW25_pacbio/Illumina/QC/tssf6_20Ccolony_R1_trimmed_mergedlanes.fastq.gz	/seq/databases/genomic_sources/SBW25_pacbio/Illumina/QC/tssf6_20Ccolony_R2_trimmed_mergedlanes.fastq.gz	/seq/databases/genomic_sources/SBW25_pacbio/Illumina/QC/tssf6_20Ccolony_unpaired_mergedlanes.fastq.gz
L34839	WTSBW25_28Ccolony	/fast/L34839/trycycler/cluster_001/7_final_consensus.fasta	/seq/databases/genomic_sources/SBW25_pacbio/Illumina/QC/WTSBW25_28Ccolony_R1_trimmed_mergedlanes.fastq.gz	/seq/databases/genomic_sources/SBW25_pacbio/Illumina/QC/WTSBW25_28Ccolony_R2_trimmed_mergedlanes.fastq.gz	/seq/databases/genomic_sources/SBW25_pacbio/Illumina/QC/WTSBW25_28Ccolony_unpaired_mergedlanes.fastq.gz	
L34840	WTSBW25_20Ccolony	/fast/L34840/trycycler/cluster_001/7_final_consensus.fasta	/seq/databases/genomic_sources/SBW25_pacbio/Illumina/QC/WTSBW25_20Ccolony_R1_trimmed_mergedlanes.fastq.gz	/seq/databases/genomic_sources/SBW25_pacbio/Illumina/QC/WTSBW25_20Ccolony_R2_trimmed_mergedlanes.fastq.gz	/seq/databases/genomic_sources/SBW25_pacbio/Illumina/QC/WTSBW25_20Ccolony_unpaired_mergedlanes.fastq.gz
L34841		/fast/L34841/trycycler/cluster_001/7_final_consensus.fasta			
L34842		/fast/L34842/trycycler/cluster_001/7_final_consensus.fasta			
